<?xml version="1.0" encoding="UTF-8"?>
<session version="1.0">
<refactoring comment="Delete resource &apos;GendarmerieMainActivity&apos;" deleteContents="false" description="Delete resource &apos;GendarmerieMainActivity&apos;" element1="/GendarmerieMainActivity" flags="7" id="org.eclipse.ltk.core.refactoring.delete.resources" resources="1" stamp="1359014827801"/>
</session>