<?xml version="1.0" encoding="UTF-8" standalone="no"?>
<!-- Generator: Adobe Illustrator 16.0.2, SVG Export Plug-In . SVG Version: 6.00 Build 0)  -->

<svg
   xmlns:dc="http://purl.org/dc/elements/1.1/"
   xmlns:cc="http://creativecommons.org/ns#"
   xmlns:rdf="http://www.w3.org/1999/02/22-rdf-syntax-ns#"
   xmlns:svg="http://www.w3.org/2000/svg"
   xmlns="http://www.w3.org/2000/svg"
   xmlns:sodipodi="http://sodipodi.sourceforge.net/DTD/sodipodi-0.dtd"
   xmlns:inkscape="http://www.inkscape.org/namespaces/inkscape"
   version="1.1"
   id="Calque_1"
   x="0px"
   y="0px"
   width="32px"
   height="32px"
   viewBox="0 0 32 32"
   enable-background="new 0 0 32 32"
   xml:space="preserve"
   inkscape:version="0.48.2 r9819"
   sodipodi:docname="alertealt.svg"><metadata
   id="metadata3009"><rdf:RDF><cc:Work
       rdf:about=""><dc:format>image/svg+xml</dc:format><dc:type
         rdf:resource="http://purl.org/dc/dcmitype/StillImage" /><dc:title></dc:title></cc:Work></rdf:RDF></metadata><defs
   id="defs3007" /><sodipodi:namedview
   pagecolor="#ffffff"
   bordercolor="#666666"
   borderopacity="1"
   objecttolerance="10"
   gridtolerance="10"
   guidetolerance="10"
   inkscape:pageopacity="0"
   inkscape:pageshadow="2"
   inkscape:window-width="1600"
   inkscape:window-height="838"
   id="namedview3005"
   showgrid="false"
   inkscape:zoom="7.375"
   inkscape:cx="16"
   inkscape:cy="9.7997938"
   inkscape:window-x="-8"
   inkscape:window-y="-8"
   inkscape:window-maximized="1"
   inkscape:current-layer="Calque_1" />

<g
   id="g3011"
   transform="matrix(1.508779,0,0,1.4535644,-8.2419995,-3.1437643)"><g
     transform="translate(0,0.81355932)"
     id="g2999">
	<path
   inkscape:connector-curvature="0"
   id="path3001"
   d="m 15.588,16.938 c -0.159,-0.96 -0.276,-1.849 -0.352,-2.665 -0.076,-0.816 -0.113,-1.564 -0.113,-2.244 0,-0.16 0.002,-0.312 0.006,-0.456 0.004,-0.144 0.021,-0.276 0.055,-0.396 h 1.645 c 0.017,0.136 0.027,0.278 0.035,0.426 0.008,0.148 0.012,0.302 0.012,0.462 0,0.664 -0.037,1.402 -0.112,2.214 -0.076,0.813 -0.193,1.698 -0.352,2.659 h -0.824 z m -0.403,2.208 v -1.572 h 1.607 v 1.572 h -1.607 z" />
</g><path
     inkscape:connector-curvature="0"
     id="path3003"
     d="m 16.067911,6.5763585 7.41469,15.3930335 H 8.651993 L 16.067911,6.5763585 m 0,-4.4135618 L 5.462695,24.177645 H 26.671898 L 16.067911,2.1627967 l 0,0 z" /></g>
</svg>