<?xml version="1.0" encoding="UTF-8" standalone="no"?>
<!-- Generator: Adobe Illustrator 16.0.2, SVG Export Plug-In . SVG Version: 6.00 Build 0)  -->

<svg
   xmlns:dc="http://purl.org/dc/elements/1.1/"
   xmlns:cc="http://creativecommons.org/ns#"
   xmlns:rdf="http://www.w3.org/1999/02/22-rdf-syntax-ns#"
   xmlns:svg="http://www.w3.org/2000/svg"
   xmlns="http://www.w3.org/2000/svg"
   xmlns:sodipodi="http://sodipodi.sourceforge.net/DTD/sodipodi-0.dtd"
   xmlns:inkscape="http://www.inkscape.org/namespaces/inkscape"
   version="1.1"
   id="Calque_1"
   x="0px"
   y="0px"
   width="32px"
   height="32px"
   viewBox="0 0 32 32"
   enable-background="new 0 0 32 32"
   xml:space="preserve"
   inkscape:version="0.48.2 r9819"
   sodipodi:docname="brigade.svg"
   inkscape:export-filename="C:\Users\Manu\Desktop\pfa\enyojs\assets\brigade.png"
   inkscape:export-xdpi="90"
   inkscape:export-ydpi="90"><metadata
   id="metadata3884"><rdf:RDF><cc:Work
       rdf:about=""><dc:format>image/svg+xml</dc:format><dc:type
         rdf:resource="http://purl.org/dc/dcmitype/StillImage" /><dc:title></dc:title></cc:Work></rdf:RDF></metadata><defs
   id="defs3882" /><sodipodi:namedview
   pagecolor="#ffffff"
   bordercolor="#666666"
   borderopacity="1"
   objecttolerance="10"
   gridtolerance="10"
   guidetolerance="10"
   inkscape:pageopacity="0"
   inkscape:pageshadow="2"
   inkscape:window-width="1600"
   inkscape:window-height="838"
   id="namedview3880"
   showgrid="false"
   inkscape:zoom="13.945947"
   inkscape:cx="28.588917"
   inkscape:cy="18.246861"
   inkscape:window-x="-8"
   inkscape:window-y="-8"
   inkscape:window-maximized="1"
   inkscape:current-layer="Calque_1" />
<g
   id="g3874"
   transform="matrix(3.1256839,0,0,1.5335749,-39.348978,-5.0914686)">
	<path
   clip-rule="evenodd"
   d="m 17.095,18.188 c -0.077,-0.169 -0.233,-0.17 -0.379,-0.182 -0.067,-0.005 -0.085,-0.026 -0.083,-0.091 0.005,-0.128 0.001,-0.257 0.001,-0.372 -0.265,-0.089 -0.523,-0.163 -0.772,-0.263 -1.032,-0.413 -1.801,-1.128 -2.351,-2.086 -0.384,-0.67 -0.634,-1.391 -0.77,-2.148 -0.071,-0.398 -0.103,-0.803 -0.151,-1.206 -0.003,-0.024 0,-0.049 0.012,-0.078 0.009,0.015 0.02,0.029 0.028,0.044 0.309,0.571 0.582,1.162 0.944,1.704 0.391,0.584 0.838,1.118 1.424,1.521 0.277,0.19 0.573,0.345 0.91,0.404 0.015,0.003 0.03,0.006 0.045,0.007 0.007,10e-4 0.015,-10e-4 0.031,-0.003 -0.007,-0.034 -0.012,-0.067 -0.021,-0.101 -0.11,-0.428 -0.258,-0.842 -0.504,-1.213 -0.128,-0.193 -0.282,-0.358 -0.48,-0.485 -0.28,-0.179 -0.512,-0.417 -0.731,-0.665 -0.261,-0.295 -0.508,-0.602 -0.714,-0.938 -0.243,-0.395 -0.38,-0.825 -0.406,-1.29 -0.032,-0.581 0.104,-1.124 0.366,-1.638 0.01,-0.02 0.023,-0.038 0.035,-0.058 0.126,0.274 0.245,0.545 0.374,0.813 0.332,0.692 0.708,1.358 1.195,1.955 0.181,0.221 0.376,0.429 0.607,0.599 0.048,0.035 0.101,0.066 0.17,0.112 0.022,-0.084 0.051,-0.153 0.058,-0.225 0.026,-0.282 -0.041,-0.551 -0.129,-0.814 C 15.706,11.2 15.593,10.915 15.491,10.626 15.455,10.522 15.403,10.435 15.33,10.352 14.971,9.942 14.74,9.46 14.554,8.954 14.425,8.602 14.376,8.241 14.408,7.871 14.45,7.387 14.635,6.956 14.925,6.569 c 0.161,-0.215 0.347,-0.406 0.558,-0.573 0.013,-0.011 0.028,-0.02 0.051,-0.036 -0.005,0.077 -0.008,0.145 -0.013,0.213 -0.036,0.506 -0.009,1.007 0.125,1.499 0.118,0.431 0.307,0.825 0.613,1.156 0.012,0.013 0.022,0.029 0.037,0.038 0.131,0.085 0.178,0.22 0.227,0.359 0.231,0.666 0.544,1.293 0.895,1.902 0.037,0.063 0.046,0.119 0.027,0.19 -0.15,0.581 -0.256,1.169 -0.316,1.766 -0.049,0.48 -0.071,0.961 -0.053,1.443 0.032,0.85 0.154,1.684 0.447,2.485 0.034,0.094 0.075,0.185 0.116,0.287 0.116,-0.106 0.171,-0.232 0.221,-0.361 0.13,-0.341 0.202,-0.696 0.254,-1.055 0.063,-0.438 0.113,-0.879 0.165,-1.319 0.049,-0.404 0.035,-0.81 0.008,-1.215 C 18.248,12.796 18.17,12.252 18.025,11.717 17.903,11.264 17.755,10.816 17.49,10.426 16.82,9.443 16.411,8.357 16.168,7.201 16.091,6.835 16.035,6.467 16.057,6.091 16.117,5.056 16.515,4.182 17.303,3.496 17.322,3.48 17.342,3.467 17.374,3.443 17.367,3.591 17.357,3.727 17.355,3.864 17.35,4.186 17.335,4.51 17.351,4.832 c 0.018,0.352 0.051,0.704 0.102,1.053 0.111,0.758 0.32,1.489 0.653,2.181 0.092,0.19 0.204,0.371 0.3,0.559 0.1,0.195 0.255,0.324 0.451,0.409 0.033,0.014 0.075,0.049 0.096,0.04 0.043,-0.021 0.078,-0.063 0.109,-0.101 0.18,-0.209 0.346,-0.429 0.475,-0.673 0.101,-0.189 0.191,-0.385 0.273,-0.584 0.115,-0.282 0.18,-0.579 0.227,-0.879 0.023,-0.145 0.027,-0.292 0.041,-0.457 0.086,0.087 0.168,0.16 0.238,0.244 0.135,0.162 0.272,0.323 0.389,0.498 0.117,0.176 0.184,0.378 0.212,0.588 0.021,0.153 0.028,0.309 0.03,0.463 0.004,0.274 -0.067,0.534 -0.16,0.789 -0.112,0.306 -0.268,0.589 -0.457,0.854 -0.117,0.165 -0.232,0.331 -0.34,0.503 -0.166,0.265 -0.305,0.545 -0.402,0.842 -0.077,0.235 -0.147,0.476 -0.193,0.72 -0.041,0.214 -0.064,0.435 -0.005,0.652 10e-4,0.004 0.005,0.008 0.013,0.019 0.096,-0.064 0.195,-0.124 0.287,-0.193 0.202,-0.152 0.408,-0.299 0.6,-0.465 0.201,-0.176 0.388,-0.369 0.576,-0.559 0.21,-0.21 0.39,-0.445 0.547,-0.696 0.21,-0.333 0.382,-0.68 0.447,-1.073 0.003,-0.019 0.013,-0.037 0.024,-0.07 0.047,0.1 0.099,0.187 0.132,0.281 0.077,0.218 0.161,0.436 0.214,0.66 0.063,0.268 0.067,0.543 0.04,0.819 -0.03,0.308 -0.125,0.595 -0.262,0.867 -0.108,0.215 -0.243,0.414 -0.402,0.596 -0.307,0.35 -0.658,0.644 -1.063,0.875 -0.08,0.047 -0.156,0.106 -0.225,0.17 -0.225,0.21 -0.434,0.435 -0.596,0.699 -0.162,0.264 -0.277,0.546 -0.332,0.851 -0.007,0.033 -0.002,0.069 -0.002,0.106 0.225,0.029 0.431,-0.018 0.629,-0.104 0.303,-0.132 0.557,-0.33 0.793,-0.56 0.412,-0.402 0.744,-0.865 1.05,-1.351 0.263,-0.417 0.496,-0.851 0.713,-1.292 0.067,-0.135 0.129,-0.273 0.192,-0.409 0.004,-0.008 0.009,-0.015 0.021,-0.037 0.01,0.089 0.021,0.162 0.024,0.235 0.007,0.239 0.023,0.479 0.014,0.717 -0.024,0.536 -0.096,1.065 -0.261,1.58 -0.149,0.464 -0.354,0.901 -0.633,1.302 -0.127,0.183 -0.275,0.352 -0.421,0.521 -0.285,0.335 -0.629,0.602 -0.993,0.843 -0.379,0.25 -0.785,0.451 -1.213,0.603 -0.148,0.053 -0.299,0.098 -0.451,0.138 -0.047,0.012 -0.057,0.03 -0.057,0.07 0.002,0.106 -0.001,0.212 0.002,0.318 0.002,0.053 -0.018,0.069 -0.07,0.07 -0.092,0 -0.186,0.004 -0.276,0.016 -0.041,0.006 -0.079,0.036 -0.132,0.063 0.041,0.017 0.066,0.032 0.096,0.039 0.238,0.055 0.463,0.147 0.681,0.259 0.088,0.045 0.181,0.08 0.263,0.134 0.059,0.038 0.103,0.1 0.154,0.149 0.035,0.032 0.07,0.063 0.107,0.094 0.254,0.212 0.474,0.457 0.646,0.74 0.207,0.338 0.355,0.699 0.406,1.096 0.018,0.146 0.039,0.294 0.041,0.44 0.014,0.792 -0.171,1.522 -0.695,2.139 -0.389,0.455 -0.89,0.727 -1.469,0.857 -0.459,0.104 -0.924,0.131 -1.389,0.045 -0.733,-0.135 -1.34,-0.493 -1.814,-1.07 -0.357,-0.435 -0.577,-0.934 -0.649,-1.49 -0.113,-0.865 0.101,-1.646 0.651,-2.325 0.451,-0.556 1.033,-0.905 1.733,-1.054 0.006,0 0.009,-0.005 0.014,-0.008 z"
   id="path3876"
   inkscape:connector-curvature="0"
   style="fill-rule:evenodd" />
	<path
   clip-rule="evenodd"
   d="m 18.141,3.32 c 0.215,0.185 0.402,0.397 0.568,0.628 0.311,0.43 0.509,0.908 0.596,1.43 0.056,0.336 0.061,0.674 0.023,1.015 -0.064,0.601 -0.25,1.163 -0.511,1.703 -0.005,0.011 -0.013,0.02 -0.03,0.046 C 18.719,8.005 18.648,7.882 18.592,7.753 18.317,7.137 18.147,6.49 18.012,5.832 17.991,5.729 17.992,5.635 18.033,5.529 18.222,5.029 18.289,4.507 18.248,3.974 18.23,3.755 18.178,3.54 18.141,3.32 z"
   id="path3878"
   inkscape:connector-curvature="0"
   style="fill-rule:evenodd" />
</g>
</svg>