<?xml version="1.0" encoding="UTF-8" standalone="no"?>
<!-- Created with Inkscape (http://www.inkscape.org/) -->

<svg
   xmlns:dc="http://purl.org/dc/elements/1.1/"
   xmlns:cc="http://creativecommons.org/ns#"
   xmlns:rdf="http://www.w3.org/1999/02/22-rdf-syntax-ns#"
   xmlns:svg="http://www.w3.org/2000/svg"
   xmlns="http://www.w3.org/2000/svg"
   xmlns:xlink="http://www.w3.org/1999/xlink"
   xmlns:sodipodi="http://sodipodi.sourceforge.net/DTD/sodipodi-0.dtd"
   xmlns:inkscape="http://www.inkscape.org/namespaces/inkscape"
   width="32"
   height="32"
   id="svg3375"
   version="1.1"
   inkscape:version="0.48.3.1 r9886"
   sodipodi:docname="New document 2">
  <defs
     id="defs3377">
    <mask
       maskUnits="userSpaceOnUse"
       id="mask4653">
      <g
         id="g4655"
         style="fill:url(#linearGradient4769);fill-opacity:1">
        <g
           id="g4657"
           style="fill:url(#linearGradient4767);fill-opacity:1">
          <g
             id="g4659"
             style="fill:url(#linearGradient4739);fill-opacity:1">
            <path
               inkscape:connector-curvature="0"
               sodipodi:nodetypes="cssccc"
               style="fill:url(#linearGradient4713);fill-opacity:1;fill-rule:evenodd;stroke:none"
               id="path4661"
               d="M 300,748.27 536,612.015 c 39.837,-23 62.5,-62.253 62.5,-108.253 l 0,-502.262 -298.5,0 0,746.77 z" />
            <path
               inkscape:connector-curvature="0"
               sodipodi:nodetypes="ccccsc"
               style="fill:url(#linearGradient4715);fill-opacity:1;fill-rule:evenodd;stroke:none"
               id="path4663"
               d="M 300,748.27 300,1.5 1.5,1.5 l 0,502.262 c 0,46 22.663,85.253 62.5,108.253 L 300,748.27 z" />
            <g
               transform="translate(-1000,1.5)"
               style="fill:url(#linearGradient4719);fill-opacity:1;display:inline"
               id="g4665">
              <path
                 inkscape:connector-curvature="0"
                 sodipodi:nodetypes="csscccsc"
                 style="fill:url(#linearGradient4717);fill-opacity:1;fill-rule:evenodd;stroke:none"
                 id="path4667"
                 d="m 1300,746.77 236,-136.255 c 39.837,-23 62.5,-62.253 62.5,-108.253 l 0,-173.762 -597,0 0,173.762 c 0,46 22.663,85.253 62.5,108.253 l 236,136.255 z" />
            </g>
            <path
               inkscape:connector-curvature="0"
               sodipodi:nodetypes="ccccc"
               id="path4669"
               d="m 333.333,1.5 33.333,0 0,328.5 -33.333,0 0,-328.5 z"
               style="fill:url(#linearGradient4721);fill-opacity:1;fill-rule:evenodd;stroke:none" />
            <path
               inkscape:connector-curvature="0"
               d="m 300,748.27003 236,-136.255 c 39.837,-23 62.5,-62.253 62.5,-108.253 0,-285.4515 0,-502.26203 0,-502.26203 l -597,0 0,502.26203 c 0,46 22.663,85.253 62.5,108.253 l 236,136.255 z"
               id="path4671"
               style="fill:url(#linearGradient4723);fill-opacity:1;stroke:#000000;stroke-width:3;stroke-miterlimit:4;stroke-dasharray:none;display:inline"
               sodipodi:nodetypes="csscccsc" />
            <path
               inkscape:connector-curvature="0"
               style="fill:url(#linearGradient4725);fill-opacity:1;fill-rule:evenodd;stroke:none"
               d="m 400,1.5 33.333,0 0,328.5 L 400,330 400,1.5 z"
               id="path4673"
               sodipodi:nodetypes="ccccc" />
            <path
               inkscape:connector-curvature="0"
               sodipodi:nodetypes="ccccc"
               id="path4675"
               d="m 466.666,1.5 33.334,0 0,328.5 -33.334,0 0,-328.5 z"
               style="fill:url(#linearGradient4727);fill-opacity:1;fill-rule:evenodd;stroke:none" />
            <path
               inkscape:connector-curvature="0"
               style="fill:url(#linearGradient4729);fill-opacity:1;fill-rule:evenodd;stroke:none"
               d="m 533.333,1.5 33.333,0 0,328.5 -33.333,0 0,-328.5 z"
               id="path4677"
               sodipodi:nodetypes="ccccc" />
            <path
               inkscape:connector-curvature="0"
               sodipodi:nodetypes="csssssssssssssssssssss"
               id="path4679"
               d="m 7.3333,184.31457 c -2.5097,0.62742 3.202168,12.62655 7.77817,17.67767 3.405206,3.75876 8.032702,6.87302 12.727927,8.83884 4.250519,1.77963 9.187999,2.83514 14.318913,3.18198 4.635969,0.31339 11.29592,-0.46248 15.733127,-1.59099 4.998779,-1.27133 9.889147,-3.17681 14.142127,-5.83364 4.522407,-2.82514 11.168947,-7.40034 14.84925,-9.89949 4.957277,-3.36629 12.941013,-9.34179 18.711686,-12.53337 6.94424,-3.84065 13.94923,-6.37319 20.53273,-7.61917 6.82157,-1.29103 14.9503,0.31725 22.0061,-0.45711 6.00472,-0.659 14.16041,-3.78553 17.76867,-3.78553 4.80343,0 1.82312,-3.05318 -0.70711,-4.24264 -2.95547,-1.38935 -11.23082,-0.70711 -15.02602,-0.70711 -4.47408,0 -10.7861,-2.87188 -14.14214,-4.24264 -5.79257,-2.36595 -15.34882,-3.37904 -23.33452,-2.12132 -6.10556,0.9616 -15.283866,5.52896 -20.5061,8.48528 -5.384024,3.0479 -14.052107,9.05899 -18.38477,12.02082 -3.172519,2.16875 -7.543492,5.65325 -12.374377,7.77818 -4.963966,2.18347 -12.25241,3.46363 -18.031223,3.53553 -5.437803,0.0677 -12.060131,-1.633 -17.50089,-4.06587 -3.160324,-1.41316 -6.81051,-3.49364 -9.36916,-4.41942 -3.037622,-1.09908 -6.68269,-0.62742 -9.19239,0 z"
               style="fill:url(#linearGradient4731);fill-opacity:1;fill-rule:evenodd;stroke:none" />
            <path
               inkscape:connector-curvature="0"
               sodipodi:nodetypes="csssssssssscssssssssssssssssssssssssssssssssssssssssssssssssssssssssssssssssssssssssssssssssssssssssssssssssssssssssssssssssssssssssssssss"
               d="m 126.83435,92.921023 c 2.05485,-2.268657 4.01115,-4.205709 5.66941,-5.863961 2.58298,-2.582967 4.52688,-5.049131 6.38173,-7.406855 1.99338,-2.533801 4.13945,-6.853803 6.86916,-6.815863 3.5998,0.04699 8.33306,6.417094 8.65686,9.656854 0.38968,3.898916 -0.0675,8.374726 -0.70711,12.020816 -0.43804,2.496899 -2.6079,6.113096 -4.41942,8.131726 -2.12641,2.36953 -5.30129,4.25063 -8.66205,5.12652 -2.87815,0.75011 -7.94497,0.44695 -10.07628,-0.17677 -2.97809,-0.87153 -7.10536,-3.74279 -7.95494,-6.36396 -0.75846,-2.34001 2.05485,-5.893079 4.24264,-8.308507 z M 14.40439,138.35265 c -0.9934,-3.40479 0.81848,-5.76823 3.53553,-8.48528 2.49602,-2.49602 5.26891,-2.98801 7.77818,-4.24264 3.75772,-1.87886 8.20242,-1.87383 12.02081,-2.82843 3.49318,-0.87329 8.8981,-2.77384 12.374373,-3.53552 4.368196,-0.95711 8.58879,-3.23799 13.788579,-5.30331 3.966131,-1.57532 7.843478,-3.9544 10.606598,-6.71752 2.08484,-2.08483 10.36629,-11.700394 12.72792,-14.849239 2.52924,-3.372314 14.84748,-14.847478 17.67767,-17.677669 2.31229,-2.312285 18.1773,-15.848498 19.79899,-19.091883 1.3526,-2.705196 4.24264,-4.573184 4.24264,-8.485281 0,-4.24264 0,-8.485281 0,-12.727922 0,-3.273631 -0.98318,-8.055637 -2.12132,-12.020814 -1,-3.483908 -1.95149,-6.391764 -2.82842,-9.899495 -1.09829,-4.3931486 3.05049,-2.8284272 7.07106,-2.8284272 4.78968,0 6.29781,0.3204778 9.8995,2.1213202 2.3387,1.169349 4.82201,6.108499 5.65685,7.778174 1.49885,2.997694 5.26438,16.892728 7.07107,20.506097 1.67799,3.355974 1.99113,6.81068 3.53553,9.899494 0.83792,1.675829 8.10472,0.707107 9.8995,0.707107 4.07222,0 7.45915,0.707107 11.31371,0.707107 4.61728,0 4.91058,-2.776213 7.07106,-5.656854 1.88961,-2.519475 3.32333,-6.646662 4.94975,-9.899495 2.13898,-4.27795 2.50768,-6.34297 4.94975,-9.899495 2.19128,-3.191282 4.82195,-5.583008 6.82107,-7.363961 1.9249,-1.714838 4.32279,-3.70867 8.02817,-3.949747 3.70802,-0.241249 3.53553,4.020613 3.53553,7.778175 0,4.24264 0,8.485281 0,12.727921 0,4.471269 -0.99258,8.49188 -2.12132,11.313708 -1.42471,3.56179 -2.25538,6.46051 -2.82842,10.606602 -0.78249,5.661544 2.67401,5.696855 5.65685,5.656854 4.04636,-0.05091 7.67709,0.409155 11.31371,0 3.432,-0.386134 7.85705,-0.707107 11.31371,-0.707107 4.29286,0 8.21929,0.207107 12.02081,0.707107 5.93786,0.780985 5.24212,4.365014 4.24264,6.363961 -0.53474,1.069489 -4.90336,2.367832 -7.77817,4.24264 -4.26686,2.782631 -5.18094,4.691471 -6.36396,10.606602 -0.20352,1.017594 5.88545,3.930941 9.19239,4.24264 3.67846,0.346717 8.21638,-0.707106 12.02081,-0.707106 4.33321,0 8.78669,-0.2782 12.72792,0.707106 2.75349,0.688373 5.09467,3.118264 6.36396,5.656855 1.50923,3.018461 -6.59021,1.459826 -9.89949,2.12132 -3.74864,0.749319 -6.87232,2.88803 -9.19239,7.778175 -1.92365,4.05459 -0.33547,7.73748 2.12132,9.19239 3.06522,1.81522 9.23088,2.74411 12.72792,4.24264 3.98072,1.70579 7.88294,4.76162 10.6495,7.52817 3.82714,3.82714 5.70805,8.95069 7.02817,12.27082 1.99532,5.01828 3.22763,14.01682 4.24264,19.09188 1.40775,7.03872 1.41422,37.97988 1.41422,44.54773 0,7.54247 0,15.08494 0,22.62741 0,7.54247 0,15.08495 0,22.62742 0,8.54779 -1.41422,36.51667 -1.41422,42.4264 0,5.47025 -5.00624,2.06483 -7.07107,0 -3.3455,-3.3455 -7.36434,-7.2177 -11.3137,-9.19238 -3.02571,-1.51286 -9.80769,-1.41422 -13.43503,-1.41422 -5.86447,0 -6.86022,0.28541 -9.19239,4.94975 -1.95526,3.91052 -4.59449,7.42291 -7.77817,10.6066 -2.80072,2.80072 -5.22982,4.94975 -10.60661,4.94975 -5.42038,0 -10.44142,-1.27873 -15.55634,0 -6.25717,1.56429 -0.53515,-9.62128 0,-12.02082 1.10716,-4.96433 1.41421,-11.10115 1.41421,-14.14213 0,-5.22528 0.32699,-10.44311 -4.24264,-12.72792 -2.77997,-1.38999 -7.22646,7.98536 -9.19239,10.6066 -3.72021,4.96028 -7.64271,10.66169 -11.31371,15.55635 -3.1173,4.1564 -6.46288,7.61985 -10.14949,9.64949 -3.33736,1.83736 -7.83809,3.54382 -12.47792,5.19975 -5.01163,1.78862 -9.40615,3.19437 -14.84925,4.24264 -4.17371,0.8038 -8.8945,0.70711 -13.43502,0.70711 -4.15198,0 -10.3979,-0.95631 -14.14214,-2.82843 -4.28505,-2.14253 -5.06297,-3.15367 -0.70711,-4.24264 4.27556,-1.06889 9.06789,-1.1663 12.72792,-2.12132 4.5682,-1.19199 8.74388,-3.90626 12.02082,-6.36396 4.12934,-3.09701 7.04831,-5.99783 9.94239,-9.8566 2.4153,-3.22041 3.81742,-5.64221 5.61396,-9.23528 1.89028,-3.78056 5.75468,-6.5652 -0.70711,-4.94975 -2.80513,0.70128 -6.09682,1.16421 -8.89949,1.66421 -3.47156,0.61933 -11.64888,4.08426 -7.36396,-1.66421 2.19584,-2.94585 4.37041,-6.70529 6.36396,-9.19239 3.3254,-4.14868 6.72087,-9.5349 9.19239,-12.72792 2.92066,-3.77327 4.42304,-6.90033 7.07106,-11.31371 2.39406,-3.99009 3.66287,-8.03284 5.65686,-12.02082 1.61634,-3.23268 2.12132,-6.66201 2.12132,-10.6066 0,-4.71404 0,-9.42809 0,-14.14213 0,-5.88323 -0.63757,-5.97011 -3.53554,-5.65686 -0.93089,0.10062 -1.53955,3.63946 -3.53553,7.07107 -2.30071,3.95552 -11.00245,17.6686 -14.14214,21.2132 -2.58312,2.91625 -10.3577,9.73731 -14.84924,13.43503 -3.85949,3.17738 -8.43285,6.87237 -14.26345,9.6066 -3.02193,1.41712 -9.92333,3.13801 -13.8566,3.87132 -3.34651,0.62392 -11.13544,2.33715 -16.09189,2.28554 -3.8536,-0.0401 -10.8463,-0.91421 -14.47792,-0.91421 -2.74455,0 -6.67491,0.7071 -9.89949,0.7071 -3.76899,0 -6.87988,-0.87132 -9.8995,-2.12132 -3.42749,-1.41884 -5.16041,-3.64086 -7.77817,-4.94975 -3.3878,-1.69391 -6.76836,-3.73891 -7.77818,-7.77817 -0.98904,-3.95616 2.66189,-5.35517 4.94975,-7.07107 2.7433,-2.05747 4.532512,-2.59575 8.48528,-2.82842 2.12357,-0.125 3.905786,-1.27757 4.678306,-4.36765 0.81124,-3.24497 1.900217,-6.50127 4.16053,-9.06738 2.45746,-2.78993 5.343684,-4.53206 8.131724,-5.65686 1.63145,-0.65819 0.2929,6.31322 1.0429,8.8566 1.02565,3.47816 2.59979,6.08543 5.65685,7.61396 2.93378,1.46689 5.57825,1.20711 8.8566,1.20711 4.95241,0 9.49609,0.24101 14.14214,0 4.10092,-0.21273 8.66833,-1.00573 12.72792,-3.53553 3.15818,-1.96807 6.04343,-5.23968 8.48528,-7.07107 2.06449,-1.54837 6.40368,-2.71201 9.19239,-4.94975 3.28096,-2.63274 7.19383,-7.19383 9.19239,-9.19238 3.58512,-3.58513 5.96384,-8.39217 7.77817,-12.02082 2.21701,-4.43402 2.98491,-8.56367 4.06587,-12.02082 0.9719,-3.10838 -1.03368,-4.33746 -3.00521,-6.54073 -2.44078,-2.72768 -5.76093,-5.28957 -8.48528,-6.8943 -2.28431,-1.34552 -7.44839,-4.08889 -9.63173,-5.03553 -4.0855,-1.77137 -9.20934,-3.85931 -13.88477,-5.52817 -3.29671,-1.17673 -9.07765,-3.50685 -12.19239,-4.28554 -3.28486,-0.82121 -6.09767,-1.41421 -9.8995,-1.41421 -4.72509,0 -6.07901,1.27174 -9.19238,2.82843 -3.36761,1.6838 -3.03584,3.83723 -7.07107,2.82843 -3.70718,-0.9268 -9.178147,-0.46762 -13.08148,0.7071 -2.701362,0.81298 -10.525297,4.53928 -11.313707,7.77817 -2.00569,8.23967 -1.653183,15.31598 1.060657,21.92032 0.72672,1.76854 -16.31129,-2.99023 -20.50609,-13.43503 -1.10066,-2.74058 -4.82483,4.24264 -7.77818,4.24264 -4.6704,0 -6.26233,0.91036 -8.48528,-3.53554 -1.69919,-3.39839 -3.38478,-6.81982 -5.65685,-10.6066 -2.45509,-4.09182 -5.53881,-6.61242 -9.19239,-10.6066 -2.68168,-2.93168 -4.26765,-1.60259 -5.65685,-6.36396 z"
               style="fill:url(#linearGradient4733);fill-opacity:1;fill-rule:evenodd;stroke:none"
               id="path4681" />
            <path
               inkscape:connector-curvature="0"
               sodipodi:nodetypes="csssssss"
               id="path4683"
               d="M 131.53033,91.707107 C 132.28695,89.09763 134.29454,87.279508 136.5,86 c 2.60595,-1.511854 5.17824,-2.252056 7.46967,-1.823223 2.41381,0.451735 3.97045,2.200709 3.53033,4.323223 -0.57656,2.7805 -1.70712,5.207118 -3.5,7 -1.49709,1.497095 -3.62988,3.252801 -5.67678,3.646447 C 136.14132,99.566055 133.37902,99.724515 132,98 c -1.4127,-1.76663 -1.07995,-4.188117 -0.46967,-6.292893 z"
               style="fill:url(#linearGradient4735);fill-opacity:1;fill-rule:evenodd;stroke:none" />
            <path
               inkscape:connector-curvature="0"
               style="fill:url(#linearGradient4737);fill-opacity:1"
               d="m 139.25928,517.04036 c 5.33448,0 9.92664,3.2328 11.91384,7.83864 10.53432,-8.23896 27.72,-25.85448 32.41152,-55.656 -0.17568,0.007 -0.37152,0.009 -0.54936,0.009 -7.1568,0 -12.96,-5.8032 -12.96,-12.96 0,-7.1568 5.8032,-12.96 12.96,-12.96 7.1568,0 12.96,5.8032 12.96,12.96 0,4.21488 -2.03832,7.98336 -5.15232,10.35 10.10664,8.838 40.13568,31.98744 84.04488,38.32704 l 0.0288,0 c -6.33384,-43.92216 -29.49048,-73.962 -38.33064,-84.07008 -2.36664,3.114 -6.13512,5.15232 -10.35,5.15232 -7.1568,0 -12.96,-5.8032 -12.96,-12.96 0,-7.1568 5.8032,-12.96 12.96,-12.96 7.1568,0 12.96,5.8032 12.96,12.96 0,0.1764 -0.002,0.37368 -0.009,0.54792 29.80152,-4.69008 47.41632,-21.87576 55.65528,-32.41008 -4.60512,-1.98792 -7.83864,-6.57936 -7.83864,-11.91384 0,-7.1568 5.80248,-12.96 12.96,-12.96 l 0.072,0 c 7.15752,0 12.96,5.8032 12.96,12.96 0,5.33448 -3.2328,9.92592 -7.83864,11.91384 8.23896,10.53432 25.85376,27.72 55.65528,32.41008 -0.006,-0.17424 -0.009,-0.37152 -0.009,-0.54792 0,-7.1568 5.80248,-12.96 12.96,-12.96 7.15752,0 12.96,5.8032 12.96,12.96 0,7.1568 -5.80248,12.96 -12.96,12.96 -4.21488,0 -7.98336,-2.03832 -10.35,-5.15232 -8.83944,10.10808 -31.99752,40.14792 -38.33136,84.07008 l 0.0295,0 C 369.0199,498.60872 399.04894,475.46 409.1563,466.622 c -3.11328,-2.36664 -5.15232,-6.13512 -5.15232,-10.35 0,-7.1568 5.80248,-12.96 12.96,-12.96 7.15752,0 12.96,5.8032 12.96,12.96 0,7.1568 -5.80248,12.96 -12.96,12.96 -0.17712,0 -0.3744,-0.002 -0.54864,-0.009 4.69152,29.80152 21.87576,47.41632 32.41152,55.656 1.98576,-4.60512 6.57864,-7.83864 11.91384,-7.83864 7.15608,0 12.96,5.80248 12.96,12.95928 0,7.15752 -5.80392,12.96 -12.96,12.96 -5.3352,0 -9.92808,-3.2328 -11.91384,-7.83864 -10.53576,8.23896 -27.72,25.85448 -32.41152,55.656 0.17424,-0.007 0.37152,-0.009 0.54864,-0.009 7.15752,0 12.96,5.8032 12.96,12.96 0,7.1568 -5.80248,12.96 -12.96,12.96 -7.15752,0 -12.96,-5.8032 -12.96,-12.96 0,-4.21488 2.03904,-7.98336 5.15232,-10.35 -10.10664,-8.838 -40.13568,-31.986 -84.04488,-38.32632 l -0.0295,0 c 6.33384,43.92 29.49192,73.96272 38.33136,84.06936 2.36664,-3.114 6.13512,-5.15232 10.35,-5.15232 7.15752,0 12.96,5.8032 12.96,12.96 0,7.1568 -5.80248,12.96 -12.96,12.96 -7.15752,0 -12.96,-5.8032 -12.96,-12.96 0,-0.17568 0.003,-0.37368 0.009,-0.54936 -29.80152,4.69152 -47.4156,21.8772 -55.65528,32.41152 4.60512,1.9872 7.83864,6.57936 7.83864,11.91384 0,7.1568 -5.80248,12.96 -12.96,12.96 l -0.072,0 c -7.15752,0 -12.96,-5.8032 -12.96,-12.96 0,-5.33448 3.2328,-9.92664 7.83864,-11.91384 -8.23896,-10.53432 -25.85448,-27.72 -55.65528,-32.41152 0.007,0.17568 0.009,0.37368 0.009,0.54936 0,7.1568 -5.8032,12.96 -12.96,12.96 -7.1568,0 -12.96,-5.8032 -12.96,-12.96 0,-7.1568 5.8032,-12.96 12.96,-12.96 4.21488,0 7.98336,2.03832 10.35,5.15232 8.84016,-10.10664 31.9968,-40.14936 38.33064,-84.06936 l -0.0288,0 c -43.90848,6.34104 -73.93752,29.48832 -84.04488,38.32632 3.114,2.36664 5.15232,6.13512 5.15232,10.35 0,7.1568 -5.8032,12.96 -12.96,12.96 -7.1568,0 -12.96,-5.8032 -12.96,-12.96 0,-7.1568 5.8032,-12.96 12.96,-12.96 0.17784,0 0.37368,0.002 0.54936,0.009 -4.69152,-29.80152 -21.8772,-47.41632 -32.41152,-55.656 -1.9872,4.60512 -6.57936,7.83864 -11.91384,7.83864 -7.1568,0 -12.96,-5.80248 -12.96,-12.96 0,-7.1568 5.8032,-12.95928 12.96,-12.95928 z m 30.636,12.94416 c 20.034,18.576 24.66,39.18384 24.66,39.18384 29.27664,-24.67512 74.94984,-30.21984 97.776,-31.40568 l -0.13536,-0.009 c -1.19952,22.86432 -6.768,68.4288 -31.40136,97.65432 0,0 20.628,4.63104 39.2112,24.68952 l 0.0382,-0.0562 c 18.56808,-20.01168 39.15864,-24.63336 39.15864,-24.63336 -24.63336,-29.22552 -30.20184,-74.79 -31.40136,-97.65432 l -0.13536,0.009 c 22.82616,1.18584 68.50008,6.73056 97.77672,31.40568 0,0 4.62384,-20.59848 24.6456,-39.17016 l 0.0662,0.0655 c -20.08008,-18.5868 -24.71184,-39.23064 -24.71184,-39.23064 -29.27664,24.67512 -74.95056,30.21984 -97.77672,31.40568 l 0.13536,0.009 c 1.19952,-22.86288 6.768,-68.4288 31.40136,-97.65432 0,0 -20.59056,-4.6224 -39.15864,-24.63408 l -0.0382,-0.0554 c -18.58392,20.05848 -39.2112,24.68952 -39.2112,24.68952 24.63264,29.22552 30.20184,74.79144 31.40136,97.65432 l 0.13536,-0.009 c -22.82688,-1.18584 -68.49936,-6.73056 -97.776,-31.40568 0,0 -4.62384,20.59848 -24.64632,39.16728 l -0.0137,-0.0158 z"
               id="path4685" />
          </g>
          <path
             d="M 300,748.27 536,612.015 c 39.837,-23 62.5,-62.253 62.5,-108.253 l 0,-502.262 -298.5,0 0,746.77 z"
             id="path4687"
             style="fill:url(#linearGradient4741);fill-opacity:1;fill-rule:evenodd;stroke:none"
             sodipodi:nodetypes="cssccc"
             inkscape:connector-curvature="0" />
          <path
             d="M 300,748.27 300,1.5 1.5,1.5 l 0,502.262 c 0,46 22.663,85.253 62.5,108.253 L 300,748.27 z"
             id="path4689"
             style="fill:url(#linearGradient4743);fill-opacity:1;fill-rule:evenodd;stroke:none"
             sodipodi:nodetypes="ccccsc"
             inkscape:connector-curvature="0" />
          <g
             id="g4691"
             style="fill:url(#linearGradient4747);fill-opacity:1;display:inline"
             transform="translate(-1000,1.5)">
            <path
               d="m 1300,746.77 236,-136.255 c 39.837,-23 62.5,-62.253 62.5,-108.253 l 0,-173.762 -597,0 0,173.762 c 0,46 22.663,85.253 62.5,108.253 l 236,136.255 z"
               id="path4693"
               style="fill:url(#linearGradient4745);fill-opacity:1;fill-rule:evenodd;stroke:none"
               sodipodi:nodetypes="csscccsc"
               inkscape:connector-curvature="0" />
          </g>
          <path
             style="fill:url(#linearGradient4749);fill-opacity:1;fill-rule:evenodd;stroke:none"
             d="m 333.333,1.5 33.333,0 0,328.5 -33.333,0 0,-328.5 z"
             id="path4695"
             sodipodi:nodetypes="ccccc"
             inkscape:connector-curvature="0" />
          <path
             sodipodi:nodetypes="csscccsc"
             style="fill:url(#linearGradient4751);fill-opacity:1;stroke:#000000;stroke-width:3;stroke-miterlimit:4;stroke-dasharray:none;display:inline"
             id="path4697"
             d="m 300,748.27003 236,-136.255 c 39.837,-23 62.5,-62.253 62.5,-108.253 0,-285.4515 0,-502.26203 0,-502.26203 l -597,0 0,502.26203 c 0,46 22.663,85.253 62.5,108.253 l 236,136.255 z"
             inkscape:connector-curvature="0" />
          <path
             sodipodi:nodetypes="ccccc"
             id="path4699"
             d="m 400,1.5 33.333,0 0,328.5 L 400,330 400,1.5 z"
             style="fill:url(#linearGradient4753);fill-opacity:1;fill-rule:evenodd;stroke:none"
             inkscape:connector-curvature="0" />
          <path
             style="fill:url(#linearGradient4755);fill-opacity:1;fill-rule:evenodd;stroke:none"
             d="m 466.666,1.5 33.334,0 0,328.5 -33.334,0 0,-328.5 z"
             id="path4701"
             sodipodi:nodetypes="ccccc"
             inkscape:connector-curvature="0" />
          <path
             sodipodi:nodetypes="ccccc"
             id="path4703"
             d="m 533.333,1.5 33.333,0 0,328.5 -33.333,0 0,-328.5 z"
             style="fill:url(#linearGradient4757);fill-opacity:1;fill-rule:evenodd;stroke:none"
             inkscape:connector-curvature="0" />
          <path
             style="fill:url(#linearGradient4759);fill-opacity:1;fill-rule:evenodd;stroke:none"
             d="m 7.3333,184.31457 c -2.5097,0.62742 3.202168,12.62655 7.77817,17.67767 3.405206,3.75876 8.032702,6.87302 12.727927,8.83884 4.250519,1.77963 9.187999,2.83514 14.318913,3.18198 4.635969,0.31339 11.29592,-0.46248 15.733127,-1.59099 4.998779,-1.27133 9.889147,-3.17681 14.142127,-5.83364 4.522407,-2.82514 11.168947,-7.40034 14.84925,-9.89949 4.957277,-3.36629 12.941013,-9.34179 18.711686,-12.53337 6.94424,-3.84065 13.94923,-6.37319 20.53273,-7.61917 6.82157,-1.29103 14.9503,0.31725 22.0061,-0.45711 6.00472,-0.659 14.16041,-3.78553 17.76867,-3.78553 4.80343,0 1.82312,-3.05318 -0.70711,-4.24264 -2.95547,-1.38935 -11.23082,-0.70711 -15.02602,-0.70711 -4.47408,0 -10.7861,-2.87188 -14.14214,-4.24264 -5.79257,-2.36595 -15.34882,-3.37904 -23.33452,-2.12132 -6.10556,0.9616 -15.283866,5.52896 -20.5061,8.48528 -5.384024,3.0479 -14.052107,9.05899 -18.38477,12.02082 -3.172519,2.16875 -7.543492,5.65325 -12.374377,7.77818 -4.963966,2.18347 -12.25241,3.46363 -18.031223,3.53553 -5.437803,0.0677 -12.060131,-1.633 -17.50089,-4.06587 -3.160324,-1.41316 -6.81051,-3.49364 -9.36916,-4.41942 -3.037622,-1.09908 -6.68269,-0.62742 -9.19239,0 z"
             id="path4705"
             sodipodi:nodetypes="csssssssssssssssssssss"
             inkscape:connector-curvature="0" />
          <path
             id="path4707"
             style="fill:url(#linearGradient4761);fill-opacity:1;fill-rule:evenodd;stroke:none"
             d="m 126.83435,92.921023 c 2.05485,-2.268657 4.01115,-4.205709 5.66941,-5.863961 2.58298,-2.582967 4.52688,-5.049131 6.38173,-7.406855 1.99338,-2.533801 4.13945,-6.853803 6.86916,-6.815863 3.5998,0.04699 8.33306,6.417094 8.65686,9.656854 0.38968,3.898916 -0.0675,8.374726 -0.70711,12.020816 -0.43804,2.496899 -2.6079,6.113096 -4.41942,8.131726 -2.12641,2.36953 -5.30129,4.25063 -8.66205,5.12652 -2.87815,0.75011 -7.94497,0.44695 -10.07628,-0.17677 -2.97809,-0.87153 -7.10536,-3.74279 -7.95494,-6.36396 -0.75846,-2.34001 2.05485,-5.893079 4.24264,-8.308507 z M 14.40439,138.35265 c -0.9934,-3.40479 0.81848,-5.76823 3.53553,-8.48528 2.49602,-2.49602 5.26891,-2.98801 7.77818,-4.24264 3.75772,-1.87886 8.20242,-1.87383 12.02081,-2.82843 3.49318,-0.87329 8.8981,-2.77384 12.374373,-3.53552 4.368196,-0.95711 8.58879,-3.23799 13.788579,-5.30331 3.966131,-1.57532 7.843478,-3.9544 10.606598,-6.71752 2.08484,-2.08483 10.36629,-11.700394 12.72792,-14.849239 2.52924,-3.372314 14.84748,-14.847478 17.67767,-17.677669 2.31229,-2.312285 18.1773,-15.848498 19.79899,-19.091883 1.3526,-2.705196 4.24264,-4.573184 4.24264,-8.485281 0,-4.24264 0,-8.485281 0,-12.727922 0,-3.273631 -0.98318,-8.055637 -2.12132,-12.020814 -1,-3.483908 -1.95149,-6.391764 -2.82842,-9.899495 -1.09829,-4.3931486 3.05049,-2.8284272 7.07106,-2.8284272 4.78968,0 6.29781,0.3204778 9.8995,2.1213202 2.3387,1.169349 4.82201,6.108499 5.65685,7.778174 1.49885,2.997694 5.26438,16.892728 7.07107,20.506097 1.67799,3.355974 1.99113,6.81068 3.53553,9.899494 0.83792,1.675829 8.10472,0.707107 9.8995,0.707107 4.07222,0 7.45915,0.707107 11.31371,0.707107 4.61728,0 4.91058,-2.776213 7.07106,-5.656854 1.88961,-2.519475 3.32333,-6.646662 4.94975,-9.899495 2.13898,-4.27795 2.50768,-6.34297 4.94975,-9.899495 2.19128,-3.191282 4.82195,-5.583008 6.82107,-7.363961 1.9249,-1.714838 4.32279,-3.70867 8.02817,-3.949747 3.70802,-0.241249 3.53553,4.020613 3.53553,7.778175 0,4.24264 0,8.485281 0,12.727921 0,4.471269 -0.99258,8.49188 -2.12132,11.313708 -1.42471,3.56179 -2.25538,6.46051 -2.82842,10.606602 -0.78249,5.661544 2.67401,5.696855 5.65685,5.656854 4.04636,-0.05091 7.67709,0.409155 11.31371,0 3.432,-0.386134 7.85705,-0.707107 11.31371,-0.707107 4.29286,0 8.21929,0.207107 12.02081,0.707107 5.93786,0.780985 5.24212,4.365014 4.24264,6.363961 -0.53474,1.069489 -4.90336,2.367832 -7.77817,4.24264 -4.26686,2.782631 -5.18094,4.691471 -6.36396,10.606602 -0.20352,1.017594 5.88545,3.930941 9.19239,4.24264 3.67846,0.346717 8.21638,-0.707106 12.02081,-0.707106 4.33321,0 8.78669,-0.2782 12.72792,0.707106 2.75349,0.688373 5.09467,3.118264 6.36396,5.656855 1.50923,3.018461 -6.59021,1.459826 -9.89949,2.12132 -3.74864,0.749319 -6.87232,2.88803 -9.19239,7.778175 -1.92365,4.05459 -0.33547,7.73748 2.12132,9.19239 3.06522,1.81522 9.23088,2.74411 12.72792,4.24264 3.98072,1.70579 7.88294,4.76162 10.6495,7.52817 3.82714,3.82714 5.70805,8.95069 7.02817,12.27082 1.99532,5.01828 3.22763,14.01682 4.24264,19.09188 1.40775,7.03872 1.41422,37.97988 1.41422,44.54773 0,7.54247 0,15.08494 0,22.62741 0,7.54247 0,15.08495 0,22.62742 0,8.54779 -1.41422,36.51667 -1.41422,42.4264 0,5.47025 -5.00624,2.06483 -7.07107,0 -3.3455,-3.3455 -7.36434,-7.2177 -11.3137,-9.19238 -3.02571,-1.51286 -9.80769,-1.41422 -13.43503,-1.41422 -5.86447,0 -6.86022,0.28541 -9.19239,4.94975 -1.95526,3.91052 -4.59449,7.42291 -7.77817,10.6066 -2.80072,2.80072 -5.22982,4.94975 -10.60661,4.94975 -5.42038,0 -10.44142,-1.27873 -15.55634,0 -6.25717,1.56429 -0.53515,-9.62128 0,-12.02082 1.10716,-4.96433 1.41421,-11.10115 1.41421,-14.14213 0,-5.22528 0.32699,-10.44311 -4.24264,-12.72792 -2.77997,-1.38999 -7.22646,7.98536 -9.19239,10.6066 -3.72021,4.96028 -7.64271,10.66169 -11.31371,15.55635 -3.1173,4.1564 -6.46288,7.61985 -10.14949,9.64949 -3.33736,1.83736 -7.83809,3.54382 -12.47792,5.19975 -5.01163,1.78862 -9.40615,3.19437 -14.84925,4.24264 -4.17371,0.8038 -8.8945,0.70711 -13.43502,0.70711 -4.15198,0 -10.3979,-0.95631 -14.14214,-2.82843 -4.28505,-2.14253 -5.06297,-3.15367 -0.70711,-4.24264 4.27556,-1.06889 9.06789,-1.1663 12.72792,-2.12132 4.5682,-1.19199 8.74388,-3.90626 12.02082,-6.36396 4.12934,-3.09701 7.04831,-5.99783 9.94239,-9.8566 2.4153,-3.22041 3.81742,-5.64221 5.61396,-9.23528 1.89028,-3.78056 5.75468,-6.5652 -0.70711,-4.94975 -2.80513,0.70128 -6.09682,1.16421 -8.89949,1.66421 -3.47156,0.61933 -11.64888,4.08426 -7.36396,-1.66421 2.19584,-2.94585 4.37041,-6.70529 6.36396,-9.19239 3.3254,-4.14868 6.72087,-9.5349 9.19239,-12.72792 2.92066,-3.77327 4.42304,-6.90033 7.07106,-11.31371 2.39406,-3.99009 3.66287,-8.03284 5.65686,-12.02082 1.61634,-3.23268 2.12132,-6.66201 2.12132,-10.6066 0,-4.71404 0,-9.42809 0,-14.14213 0,-5.88323 -0.63757,-5.97011 -3.53554,-5.65686 -0.93089,0.10062 -1.53955,3.63946 -3.53553,7.07107 -2.30071,3.95552 -11.00245,17.6686 -14.14214,21.2132 -2.58312,2.91625 -10.3577,9.73731 -14.84924,13.43503 -3.85949,3.17738 -8.43285,6.87237 -14.26345,9.6066 -3.02193,1.41712 -9.92333,3.13801 -13.8566,3.87132 -3.34651,0.62392 -11.13544,2.33715 -16.09189,2.28554 -3.8536,-0.0401 -10.8463,-0.91421 -14.47792,-0.91421 -2.74455,0 -6.67491,0.7071 -9.89949,0.7071 -3.76899,0 -6.87988,-0.87132 -9.8995,-2.12132 -3.42749,-1.41884 -5.16041,-3.64086 -7.77817,-4.94975 -3.3878,-1.69391 -6.76836,-3.73891 -7.77818,-7.77817 -0.98904,-3.95616 2.66189,-5.35517 4.94975,-7.07107 2.7433,-2.05747 4.532512,-2.59575 8.48528,-2.82842 2.12357,-0.125 3.905786,-1.27757 4.678306,-4.36765 0.81124,-3.24497 1.900217,-6.50127 4.16053,-9.06738 2.45746,-2.78993 5.343684,-4.53206 8.131724,-5.65686 1.63145,-0.65819 0.2929,6.31322 1.0429,8.8566 1.02565,3.47816 2.59979,6.08543 5.65685,7.61396 2.93378,1.46689 5.57825,1.20711 8.8566,1.20711 4.95241,0 9.49609,0.24101 14.14214,0 4.10092,-0.21273 8.66833,-1.00573 12.72792,-3.53553 3.15818,-1.96807 6.04343,-5.23968 8.48528,-7.07107 2.06449,-1.54837 6.40368,-2.71201 9.19239,-4.94975 3.28096,-2.63274 7.19383,-7.19383 9.19239,-9.19238 3.58512,-3.58513 5.96384,-8.39217 7.77817,-12.02082 2.21701,-4.43402 2.98491,-8.56367 4.06587,-12.02082 0.9719,-3.10838 -1.03368,-4.33746 -3.00521,-6.54073 -2.44078,-2.72768 -5.76093,-5.28957 -8.48528,-6.8943 -2.28431,-1.34552 -7.44839,-4.08889 -9.63173,-5.03553 -4.0855,-1.77137 -9.20934,-3.85931 -13.88477,-5.52817 -3.29671,-1.17673 -9.07765,-3.50685 -12.19239,-4.28554 -3.28486,-0.82121 -6.09767,-1.41421 -9.8995,-1.41421 -4.72509,0 -6.07901,1.27174 -9.19238,2.82843 -3.36761,1.6838 -3.03584,3.83723 -7.07107,2.82843 -3.70718,-0.9268 -9.178147,-0.46762 -13.08148,0.7071 -2.701362,0.81298 -10.525297,4.53928 -11.313707,7.77817 -2.00569,8.23967 -1.653183,15.31598 1.060657,21.92032 0.72672,1.76854 -16.31129,-2.99023 -20.50609,-13.43503 -1.10066,-2.74058 -4.82483,4.24264 -7.77818,4.24264 -4.6704,0 -6.26233,0.91036 -8.48528,-3.53554 -1.69919,-3.39839 -3.38478,-6.81982 -5.65685,-10.6066 -2.45509,-4.09182 -5.53881,-6.61242 -9.19239,-10.6066 -2.68168,-2.93168 -4.26765,-1.60259 -5.65685,-6.36396 z"
             sodipodi:nodetypes="csssssssssscssssssssssssssssssssssssssssssssssssssssssssssssssssssssssssssssssssssssssssssssssssssssssssssssssssssssssssssssssssssssssssss"
             inkscape:connector-curvature="0" />
          <path
             style="fill:url(#linearGradient4763);fill-opacity:1;fill-rule:evenodd;stroke:none"
             d="M 131.53033,91.707107 C 132.28695,89.09763 134.29454,87.279508 136.5,86 c 2.60595,-1.511854 5.17824,-2.252056 7.46967,-1.823223 2.41381,0.451735 3.97045,2.200709 3.53033,4.323223 -0.57656,2.7805 -1.70712,5.207118 -3.5,7 -1.49709,1.497095 -3.62988,3.252801 -5.67678,3.646447 C 136.14132,99.566055 133.37902,99.724515 132,98 c -1.4127,-1.76663 -1.07995,-4.188117 -0.46967,-6.292893 z"
             id="path4709"
             sodipodi:nodetypes="csssssss"
             inkscape:connector-curvature="0" />
          <path
             id="path4711"
             d="m 139.25928,517.04036 c 5.33448,0 9.92664,3.2328 11.91384,7.83864 10.53432,-8.23896 27.72,-25.85448 32.41152,-55.656 -0.17568,0.007 -0.37152,0.009 -0.54936,0.009 -7.1568,0 -12.96,-5.8032 -12.96,-12.96 0,-7.1568 5.8032,-12.96 12.96,-12.96 7.1568,0 12.96,5.8032 12.96,12.96 0,4.21488 -2.03832,7.98336 -5.15232,10.35 10.10664,8.838 40.13568,31.98744 84.04488,38.32704 l 0.0288,0 c -6.33384,-43.92216 -29.49048,-73.962 -38.33064,-84.07008 -2.36664,3.114 -6.13512,5.15232 -10.35,5.15232 -7.1568,0 -12.96,-5.8032 -12.96,-12.96 0,-7.1568 5.8032,-12.96 12.96,-12.96 7.1568,0 12.96,5.8032 12.96,12.96 0,0.1764 -0.002,0.37368 -0.009,0.54792 29.80152,-4.69008 47.41632,-21.87576 55.65528,-32.41008 -4.60512,-1.98792 -7.83864,-6.57936 -7.83864,-11.91384 0,-7.1568 5.80248,-12.96 12.96,-12.96 l 0.072,0 c 7.15752,0 12.96,5.8032 12.96,12.96 0,5.33448 -3.2328,9.92592 -7.83864,11.91384 8.23896,10.53432 25.85376,27.72 55.65528,32.41008 -0.006,-0.17424 -0.009,-0.37152 -0.009,-0.54792 0,-7.1568 5.80248,-12.96 12.96,-12.96 7.15752,0 12.96,5.8032 12.96,12.96 0,7.1568 -5.80248,12.96 -12.96,12.96 -4.21488,0 -7.98336,-2.03832 -10.35,-5.15232 -8.83944,10.10808 -31.99752,40.14792 -38.33136,84.07008 l 0.0295,0 C 369.0199,498.60872 399.04894,475.46 409.1563,466.622 c -3.11328,-2.36664 -5.15232,-6.13512 -5.15232,-10.35 0,-7.1568 5.80248,-12.96 12.96,-12.96 7.15752,0 12.96,5.8032 12.96,12.96 0,7.1568 -5.80248,12.96 -12.96,12.96 -0.17712,0 -0.3744,-0.002 -0.54864,-0.009 4.69152,29.80152 21.87576,47.41632 32.41152,55.656 1.98576,-4.60512 6.57864,-7.83864 11.91384,-7.83864 7.15608,0 12.96,5.80248 12.96,12.95928 0,7.15752 -5.80392,12.96 -12.96,12.96 -5.3352,0 -9.92808,-3.2328 -11.91384,-7.83864 -10.53576,8.23896 -27.72,25.85448 -32.41152,55.656 0.17424,-0.007 0.37152,-0.009 0.54864,-0.009 7.15752,0 12.96,5.8032 12.96,12.96 0,7.1568 -5.80248,12.96 -12.96,12.96 -7.15752,0 -12.96,-5.8032 -12.96,-12.96 0,-4.21488 2.03904,-7.98336 5.15232,-10.35 -10.10664,-8.838 -40.13568,-31.986 -84.04488,-38.32632 l -0.0295,0 c 6.33384,43.92 29.49192,73.96272 38.33136,84.06936 2.36664,-3.114 6.13512,-5.15232 10.35,-5.15232 7.15752,0 12.96,5.8032 12.96,12.96 0,7.1568 -5.80248,12.96 -12.96,12.96 -7.15752,0 -12.96,-5.8032 -12.96,-12.96 0,-0.17568 0.003,-0.37368 0.009,-0.54936 -29.80152,4.69152 -47.4156,21.8772 -55.65528,32.41152 4.60512,1.9872 7.83864,6.57936 7.83864,11.91384 0,7.1568 -5.80248,12.96 -12.96,12.96 l -0.072,0 c -7.15752,0 -12.96,-5.8032 -12.96,-12.96 0,-5.33448 3.2328,-9.92664 7.83864,-11.91384 -8.23896,-10.53432 -25.85448,-27.72 -55.65528,-32.41152 0.007,0.17568 0.009,0.37368 0.009,0.54936 0,7.1568 -5.8032,12.96 -12.96,12.96 -7.1568,0 -12.96,-5.8032 -12.96,-12.96 0,-7.1568 5.8032,-12.96 12.96,-12.96 4.21488,0 7.98336,2.03832 10.35,5.15232 8.84016,-10.10664 31.9968,-40.14936 38.33064,-84.06936 l -0.0288,0 c -43.90848,6.34104 -73.93752,29.48832 -84.04488,38.32632 3.114,2.36664 5.15232,6.13512 5.15232,10.35 0,7.1568 -5.8032,12.96 -12.96,12.96 -7.1568,0 -12.96,-5.8032 -12.96,-12.96 0,-7.1568 5.8032,-12.96 12.96,-12.96 0.17784,0 0.37368,0.002 0.54936,0.009 -4.69152,-29.80152 -21.8772,-47.41632 -32.41152,-55.656 -1.9872,4.60512 -6.57936,7.83864 -11.91384,7.83864 -7.1568,0 -12.96,-5.80248 -12.96,-12.96 0,-7.1568 5.8032,-12.95928 12.96,-12.95928 z m 30.636,12.94416 c 20.034,18.576 24.66,39.18384 24.66,39.18384 29.27664,-24.67512 74.94984,-30.21984 97.776,-31.40568 l -0.13536,-0.009 c -1.19952,22.86432 -6.768,68.4288 -31.40136,97.65432 0,0 20.628,4.63104 39.2112,24.68952 l 0.0382,-0.0562 c 18.56808,-20.01168 39.15864,-24.63336 39.15864,-24.63336 -24.63336,-29.22552 -30.20184,-74.79 -31.40136,-97.65432 l -0.13536,0.009 c 22.82616,1.18584 68.50008,6.73056 97.77672,31.40568 0,0 4.62384,-20.59848 24.6456,-39.17016 l 0.0662,0.0655 c -20.08008,-18.5868 -24.71184,-39.23064 -24.71184,-39.23064 -29.27664,24.67512 -74.95056,30.21984 -97.77672,31.40568 l 0.13536,0.009 c 1.19952,-22.86288 6.768,-68.4288 31.40136,-97.65432 0,0 -20.59056,-4.6224 -39.15864,-24.63408 l -0.0382,-0.0554 c -18.58392,20.05848 -39.2112,24.68952 -39.2112,24.68952 24.63264,29.22552 30.20184,74.79144 31.40136,97.65432 l 0.13536,-0.009 c -22.82688,-1.18584 -68.49936,-6.73056 -97.776,-31.40568 0,0 -4.62384,20.59848 -24.64632,39.16728 l -0.0137,-0.0158 z"
             style="fill:url(#linearGradient4765);fill-opacity:1"
             inkscape:connector-curvature="0" />
        </g>
      </g>
    </mask>
    <linearGradient
       inkscape:collect="always"
       xlink:href="#linearGradient4561"
       id="linearGradient4769"
       gradientUnits="userSpaceOnUse"
       x1="314.78729"
       y1="747.57855"
       x2="314.78729"
       y2="476.17059" />
    <linearGradient
       id="linearGradient4561">
      <stop
         style="stop-color:#ffffff;stop-opacity:1;"
         offset="0"
         id="stop4563" />
      <stop
         style="stop-color:#000000;stop-opacity:1;"
         offset="1"
         id="stop4565" />
    </linearGradient>
    <linearGradient
       inkscape:collect="always"
       xlink:href="#linearGradient4561"
       id="linearGradient4767"
       gradientUnits="userSpaceOnUse"
       x1="314.78729"
       y1="747.57855"
       x2="314.78729"
       y2="476.17059" />
    <linearGradient
       id="linearGradient3151">
      <stop
         style="stop-color:#ffffff;stop-opacity:1;"
         offset="0"
         id="stop3153" />
      <stop
         style="stop-color:#000000;stop-opacity:1;"
         offset="1"
         id="stop3155" />
    </linearGradient>
    <linearGradient
       inkscape:collect="always"
       xlink:href="#linearGradient4561"
       id="linearGradient4739"
       gradientUnits="userSpaceOnUse"
       x1="314.78729"
       y1="747.57855"
       x2="314.78729"
       y2="476.17059" />
    <linearGradient
       id="linearGradient3158">
      <stop
         style="stop-color:#ffffff;stop-opacity:1;"
         offset="0"
         id="stop3160" />
      <stop
         style="stop-color:#000000;stop-opacity:1;"
         offset="1"
         id="stop3162" />
    </linearGradient>
    <linearGradient
       inkscape:collect="always"
       xlink:href="#linearGradient4561"
       id="linearGradient4713"
       gradientUnits="userSpaceOnUse"
       x1="314.78729"
       y1="747.57855"
       x2="314.78729"
       y2="476.17059" />
    <linearGradient
       id="linearGradient3165">
      <stop
         style="stop-color:#ffffff;stop-opacity:1;"
         offset="0"
         id="stop3167" />
      <stop
         style="stop-color:#000000;stop-opacity:1;"
         offset="1"
         id="stop3169" />
    </linearGradient>
    <linearGradient
       inkscape:collect="always"
       xlink:href="#linearGradient4561"
       id="linearGradient4715"
       gradientUnits="userSpaceOnUse"
       x1="314.78729"
       y1="747.57855"
       x2="314.78729"
       y2="476.17059" />
    <linearGradient
       id="linearGradient3172">
      <stop
         style="stop-color:#ffffff;stop-opacity:1;"
         offset="0"
         id="stop3174" />
      <stop
         style="stop-color:#000000;stop-opacity:1;"
         offset="1"
         id="stop3176" />
    </linearGradient>
    <linearGradient
       inkscape:collect="always"
       xlink:href="#linearGradient4561"
       id="linearGradient4719"
       gradientUnits="userSpaceOnUse"
       x1="314.78729"
       y1="747.57855"
       x2="314.78729"
       y2="476.17059" />
    <linearGradient
       id="linearGradient3179">
      <stop
         style="stop-color:#ffffff;stop-opacity:1;"
         offset="0"
         id="stop3181" />
      <stop
         style="stop-color:#000000;stop-opacity:1;"
         offset="1"
         id="stop3183" />
    </linearGradient>
    <linearGradient
       inkscape:collect="always"
       xlink:href="#linearGradient4561"
       id="linearGradient4717"
       gradientUnits="userSpaceOnUse"
       x1="314.78729"
       y1="747.57855"
       x2="314.78729"
       y2="476.17059" />
    <linearGradient
       id="linearGradient3186">
      <stop
         style="stop-color:#ffffff;stop-opacity:1;"
         offset="0"
         id="stop3188" />
      <stop
         style="stop-color:#000000;stop-opacity:1;"
         offset="1"
         id="stop3190" />
    </linearGradient>
    <linearGradient
       inkscape:collect="always"
       xlink:href="#linearGradient4561"
       id="linearGradient4721"
       gradientUnits="userSpaceOnUse"
       x1="314.78729"
       y1="747.57855"
       x2="314.78729"
       y2="476.17059" />
    <linearGradient
       id="linearGradient3193">
      <stop
         style="stop-color:#ffffff;stop-opacity:1;"
         offset="0"
         id="stop3195" />
      <stop
         style="stop-color:#000000;stop-opacity:1;"
         offset="1"
         id="stop3197" />
    </linearGradient>
    <linearGradient
       inkscape:collect="always"
       xlink:href="#linearGradient4561"
       id="linearGradient4723"
       gradientUnits="userSpaceOnUse"
       x1="314.78729"
       y1="747.57855"
       x2="314.78729"
       y2="476.17059" />
    <linearGradient
       id="linearGradient3200">
      <stop
         style="stop-color:#ffffff;stop-opacity:1;"
         offset="0"
         id="stop3202" />
      <stop
         style="stop-color:#000000;stop-opacity:1;"
         offset="1"
         id="stop3204" />
    </linearGradient>
    <linearGradient
       inkscape:collect="always"
       xlink:href="#linearGradient4561"
       id="linearGradient4725"
       gradientUnits="userSpaceOnUse"
       x1="314.78729"
       y1="747.57855"
       x2="314.78729"
       y2="476.17059" />
    <linearGradient
       id="linearGradient3207">
      <stop
         style="stop-color:#ffffff;stop-opacity:1;"
         offset="0"
         id="stop3209" />
      <stop
         style="stop-color:#000000;stop-opacity:1;"
         offset="1"
         id="stop3211" />
    </linearGradient>
    <linearGradient
       inkscape:collect="always"
       xlink:href="#linearGradient4561"
       id="linearGradient4727"
       gradientUnits="userSpaceOnUse"
       x1="314.78729"
       y1="747.57855"
       x2="314.78729"
       y2="476.17059" />
    <linearGradient
       id="linearGradient3214">
      <stop
         style="stop-color:#ffffff;stop-opacity:1;"
         offset="0"
         id="stop3216" />
      <stop
         style="stop-color:#000000;stop-opacity:1;"
         offset="1"
         id="stop3218" />
    </linearGradient>
    <linearGradient
       inkscape:collect="always"
       xlink:href="#linearGradient4561"
       id="linearGradient4729"
       gradientUnits="userSpaceOnUse"
       x1="314.78729"
       y1="747.57855"
       x2="314.78729"
       y2="476.17059" />
    <linearGradient
       id="linearGradient3221">
      <stop
         style="stop-color:#ffffff;stop-opacity:1;"
         offset="0"
         id="stop3223" />
      <stop
         style="stop-color:#000000;stop-opacity:1;"
         offset="1"
         id="stop3225" />
    </linearGradient>
    <linearGradient
       inkscape:collect="always"
       xlink:href="#linearGradient4561"
       id="linearGradient4731"
       gradientUnits="userSpaceOnUse"
       x1="314.78729"
       y1="747.57855"
       x2="314.78729"
       y2="476.17059" />
    <linearGradient
       id="linearGradient3228">
      <stop
         style="stop-color:#ffffff;stop-opacity:1;"
         offset="0"
         id="stop3230" />
      <stop
         style="stop-color:#000000;stop-opacity:1;"
         offset="1"
         id="stop3232" />
    </linearGradient>
    <linearGradient
       inkscape:collect="always"
       xlink:href="#linearGradient4561"
       id="linearGradient4733"
       gradientUnits="userSpaceOnUse"
       x1="314.78729"
       y1="747.57855"
       x2="314.78729"
       y2="476.17059" />
    <linearGradient
       id="linearGradient3235">
      <stop
         style="stop-color:#ffffff;stop-opacity:1;"
         offset="0"
         id="stop3237" />
      <stop
         style="stop-color:#000000;stop-opacity:1;"
         offset="1"
         id="stop3239" />
    </linearGradient>
    <linearGradient
       inkscape:collect="always"
       xlink:href="#linearGradient4561"
       id="linearGradient4735"
       gradientUnits="userSpaceOnUse"
       x1="314.78729"
       y1="747.57855"
       x2="314.78729"
       y2="476.17059" />
    <linearGradient
       id="linearGradient3242">
      <stop
         style="stop-color:#ffffff;stop-opacity:1;"
         offset="0"
         id="stop3244" />
      <stop
         style="stop-color:#000000;stop-opacity:1;"
         offset="1"
         id="stop3246" />
    </linearGradient>
    <linearGradient
       inkscape:collect="always"
       xlink:href="#linearGradient4561"
       id="linearGradient4737"
       gradientUnits="userSpaceOnUse"
       x1="314.78729"
       y1="747.57855"
       x2="314.78729"
       y2="476.17059" />
    <linearGradient
       id="linearGradient3249">
      <stop
         style="stop-color:#ffffff;stop-opacity:1;"
         offset="0"
         id="stop3251" />
      <stop
         style="stop-color:#000000;stop-opacity:1;"
         offset="1"
         id="stop3253" />
    </linearGradient>
    <linearGradient
       inkscape:collect="always"
       xlink:href="#linearGradient4561"
       id="linearGradient4741"
       gradientUnits="userSpaceOnUse"
       x1="314.78729"
       y1="747.57855"
       x2="314.78729"
       y2="476.17059" />
    <linearGradient
       id="linearGradient3256">
      <stop
         style="stop-color:#ffffff;stop-opacity:1;"
         offset="0"
         id="stop3258" />
      <stop
         style="stop-color:#000000;stop-opacity:1;"
         offset="1"
         id="stop3260" />
    </linearGradient>
    <linearGradient
       inkscape:collect="always"
       xlink:href="#linearGradient4561"
       id="linearGradient4743"
       gradientUnits="userSpaceOnUse"
       x1="314.78729"
       y1="747.57855"
       x2="314.78729"
       y2="476.17059" />
    <linearGradient
       id="linearGradient3263">
      <stop
         style="stop-color:#ffffff;stop-opacity:1;"
         offset="0"
         id="stop3265" />
      <stop
         style="stop-color:#000000;stop-opacity:1;"
         offset="1"
         id="stop3267" />
    </linearGradient>
    <linearGradient
       inkscape:collect="always"
       xlink:href="#linearGradient4561"
       id="linearGradient4747"
       gradientUnits="userSpaceOnUse"
       x1="314.78729"
       y1="747.57855"
       x2="314.78729"
       y2="476.17059" />
    <linearGradient
       id="linearGradient3270">
      <stop
         style="stop-color:#ffffff;stop-opacity:1;"
         offset="0"
         id="stop3272" />
      <stop
         style="stop-color:#000000;stop-opacity:1;"
         offset="1"
         id="stop3274" />
    </linearGradient>
    <linearGradient
       inkscape:collect="always"
       xlink:href="#linearGradient4561"
       id="linearGradient4745"
       gradientUnits="userSpaceOnUse"
       x1="314.78729"
       y1="747.57855"
       x2="314.78729"
       y2="476.17059" />
    <linearGradient
       id="linearGradient3277">
      <stop
         style="stop-color:#ffffff;stop-opacity:1;"
         offset="0"
         id="stop3279" />
      <stop
         style="stop-color:#000000;stop-opacity:1;"
         offset="1"
         id="stop3281" />
    </linearGradient>
    <linearGradient
       inkscape:collect="always"
       xlink:href="#linearGradient4561"
       id="linearGradient4749"
       gradientUnits="userSpaceOnUse"
       x1="314.78729"
       y1="747.57855"
       x2="314.78729"
       y2="476.17059" />
    <linearGradient
       id="linearGradient3284">
      <stop
         style="stop-color:#ffffff;stop-opacity:1;"
         offset="0"
         id="stop3286" />
      <stop
         style="stop-color:#000000;stop-opacity:1;"
         offset="1"
         id="stop3288" />
    </linearGradient>
    <linearGradient
       inkscape:collect="always"
       xlink:href="#linearGradient4561"
       id="linearGradient4751"
       gradientUnits="userSpaceOnUse"
       x1="314.78729"
       y1="747.57855"
       x2="314.78729"
       y2="476.17059" />
    <linearGradient
       id="linearGradient3291">
      <stop
         style="stop-color:#ffffff;stop-opacity:1;"
         offset="0"
         id="stop3293" />
      <stop
         style="stop-color:#000000;stop-opacity:1;"
         offset="1"
         id="stop3295" />
    </linearGradient>
    <linearGradient
       inkscape:collect="always"
       xlink:href="#linearGradient4561"
       id="linearGradient4753"
       gradientUnits="userSpaceOnUse"
       x1="314.78729"
       y1="747.57855"
       x2="314.78729"
       y2="476.17059" />
    <linearGradient
       id="linearGradient3298">
      <stop
         style="stop-color:#ffffff;stop-opacity:1;"
         offset="0"
         id="stop3300" />
      <stop
         style="stop-color:#000000;stop-opacity:1;"
         offset="1"
         id="stop3302" />
    </linearGradient>
    <linearGradient
       inkscape:collect="always"
       xlink:href="#linearGradient4561"
       id="linearGradient4755"
       gradientUnits="userSpaceOnUse"
       x1="314.78729"
       y1="747.57855"
       x2="314.78729"
       y2="476.17059" />
    <linearGradient
       id="linearGradient3305">
      <stop
         style="stop-color:#ffffff;stop-opacity:1;"
         offset="0"
         id="stop3307" />
      <stop
         style="stop-color:#000000;stop-opacity:1;"
         offset="1"
         id="stop3309" />
    </linearGradient>
    <linearGradient
       inkscape:collect="always"
       xlink:href="#linearGradient4561"
       id="linearGradient4757"
       gradientUnits="userSpaceOnUse"
       x1="314.78729"
       y1="747.57855"
       x2="314.78729"
       y2="476.17059" />
    <linearGradient
       id="linearGradient3312">
      <stop
         style="stop-color:#ffffff;stop-opacity:1;"
         offset="0"
         id="stop3314" />
      <stop
         style="stop-color:#000000;stop-opacity:1;"
         offset="1"
         id="stop3316" />
    </linearGradient>
    <linearGradient
       inkscape:collect="always"
       xlink:href="#linearGradient4561"
       id="linearGradient4759"
       gradientUnits="userSpaceOnUse"
       x1="314.78729"
       y1="747.57855"
       x2="314.78729"
       y2="476.17059" />
    <linearGradient
       id="linearGradient3319">
      <stop
         style="stop-color:#ffffff;stop-opacity:1;"
         offset="0"
         id="stop3321" />
      <stop
         style="stop-color:#000000;stop-opacity:1;"
         offset="1"
         id="stop3323" />
    </linearGradient>
    <linearGradient
       inkscape:collect="always"
       xlink:href="#linearGradient4561"
       id="linearGradient4761"
       gradientUnits="userSpaceOnUse"
       x1="314.78729"
       y1="747.57855"
       x2="314.78729"
       y2="476.17059" />
    <linearGradient
       id="linearGradient3326">
      <stop
         style="stop-color:#ffffff;stop-opacity:1;"
         offset="0"
         id="stop3328" />
      <stop
         style="stop-color:#000000;stop-opacity:1;"
         offset="1"
         id="stop3330" />
    </linearGradient>
    <linearGradient
       inkscape:collect="always"
       xlink:href="#linearGradient4561"
       id="linearGradient4763"
       gradientUnits="userSpaceOnUse"
       x1="314.78729"
       y1="747.57855"
       x2="314.78729"
       y2="476.17059" />
    <linearGradient
       id="linearGradient3333">
      <stop
         style="stop-color:#ffffff;stop-opacity:1;"
         offset="0"
         id="stop3335" />
      <stop
         style="stop-color:#000000;stop-opacity:1;"
         offset="1"
         id="stop3337" />
    </linearGradient>
    <linearGradient
       inkscape:collect="always"
       xlink:href="#linearGradient4561"
       id="linearGradient4765"
       gradientUnits="userSpaceOnUse"
       x1="314.78729"
       y1="747.57855"
       x2="314.78729"
       y2="476.17059" />
    <linearGradient
       id="linearGradient3340">
      <stop
         style="stop-color:#ffffff;stop-opacity:1;"
         offset="0"
         id="stop3342" />
      <stop
         style="stop-color:#000000;stop-opacity:1;"
         offset="1"
         id="stop3344" />
    </linearGradient>
  </defs>
  <sodipodi:namedview
     id="base"
     pagecolor="#ffffff"
     bordercolor="#666666"
     borderopacity="1.0"
     inkscape:pageopacity="0.0"
     inkscape:pageshadow="2"
     inkscape:zoom="18.65625"
     inkscape:cx="15.061977"
     inkscape:cy="16"
     inkscape:document-units="px"
     inkscape:current-layer="g4771"
     showgrid="false"
     fit-margin-top="0"
     fit-margin-left="0"
     fit-margin-right="0"
     fit-margin-bottom="0"
     inkscape:window-width="1215"
     inkscape:window-height="776"
     inkscape:window-x="65"
     inkscape:window-y="24"
     inkscape:window-maximized="1" />
  <metadata
     id="metadata3380">
    <rdf:RDF>
      <cc:Work
         rdf:about="">
        <dc:format>image/svg+xml</dc:format>
        <dc:type
           rdf:resource="http://purl.org/dc/dcmitype/StillImage" />
        <dc:title></dc:title>
      </cc:Work>
    </rdf:RDF>
  </metadata>
  <g
     inkscape:label="Layer 1"
     inkscape:groupmode="layer"
     id="layer1"
     transform="translate(-231.55844,-280.372)">
    <g
       id="g4771"
       transform="translate(727.66759,55.379987)">
      <g
         transform="matrix(0.04267975,0,0,0.04267975,-492.91307,224.99201)"
         id="g7802">
        <path
           d="M 300,748.27 536,612.015 c 39.837,-23 62.5,-62.253 62.5,-108.253 l 0,-502.262 -298.5,0 0,746.77 z"
           id="path5103"
           style="fill:#ffe000;fill-opacity:1;fill-rule:evenodd;stroke:none"
           sodipodi:nodetypes="cssccc"
           inkscape:connector-curvature="0" />
        <path
           d="M 300,748.27 300,1.5 1.5,1.5 l 0,502.262 c 0,46 22.663,85.253 62.5,108.253 L 300,748.27 z"
           id="path5104"
           style="fill:#ffe000;fill-opacity:1;fill-rule:evenodd;stroke:none"
           sodipodi:nodetypes="ccccsc"
           inkscape:connector-curvature="0" />
        <g
           id="g7962"
           style="fill:#0000ff;display:inline"
           transform="translate(-1000,1.5)">
          <path
             d="m 1300,746.77 236,-136.255 c 39.837,-23 62.5,-62.253 62.5,-108.253 l 0,-173.762 -597,0 0,173.762 c 0,46 22.663,85.253 62.5,108.253 l 236,136.255 z"
             id="path7964"
             style="fill:#f00000;fill-opacity:1;fill-rule:evenodd;stroke:none"
             sodipodi:nodetypes="csscccsc"
             inkscape:connector-curvature="0" />
        </g>
        <path
           style="fill:#f00000;fill-opacity:1;fill-rule:evenodd;stroke:none"
           d="m 333.333,1.5 33.333,0 0,328.5 -33.333,0 0,-328.5 z"
           id="rect7190"
           sodipodi:nodetypes="ccccc"
           inkscape:connector-curvature="0" />
        <path
           sodipodi:nodetypes="csscccsc"
           style="fill:none;stroke:#000000;stroke-width:3;stroke-miterlimit:4;stroke-dasharray:none;display:inline"
           id="path8055"
           d="m 300,748.27003 236,-136.255 c 39.837,-23 62.5,-62.253 62.5,-108.253 0,-285.4515 0,-502.26203 0,-502.26203 l -597,0 0,502.26203 c 0,46 22.663,85.253 62.5,108.253 l 236,136.255 z"
           inkscape:connector-curvature="0" />
        <path
           sodipodi:nodetypes="ccccc"
           id="path7191"
           d="m 400,1.5 33.333,0 0,328.5 L 400,330 400,1.5 z"
           style="fill:#f00000;fill-opacity:1;fill-rule:evenodd;stroke:none"
           inkscape:connector-curvature="0" />
        <path
           style="fill:#f00000;fill-opacity:1;fill-rule:evenodd;stroke:none"
           d="m 466.666,1.5 33.334,0 0,328.5 -33.334,0 0,-328.5 z"
           id="path7192"
           sodipodi:nodetypes="ccccc"
           inkscape:connector-curvature="0" />
        <path
           sodipodi:nodetypes="ccccc"
           id="path7193"
           d="m 533.333,1.5 33.333,0 0,328.5 -33.333,0 0,-328.5 z"
           style="fill:#f00000;fill-opacity:1;fill-rule:evenodd;stroke:none"
           inkscape:connector-curvature="0" />
        <path
           style="fill:#f00000;fill-opacity:1;fill-rule:evenodd;stroke:none"
           d="m 7.3333,184.31457 c -2.5097,0.62742 3.202168,12.62655 7.77817,17.67767 3.405206,3.75876 8.032702,6.87302 12.727927,8.83884 4.250519,1.77963 9.187999,2.83514 14.318913,3.18198 4.635969,0.31339 11.29592,-0.46248 15.733127,-1.59099 4.998779,-1.27133 9.889147,-3.17681 14.142127,-5.83364 4.522407,-2.82514 11.168947,-7.40034 14.84925,-9.89949 4.957277,-3.36629 12.941013,-9.34179 18.711686,-12.53337 6.94424,-3.84065 13.94923,-6.37319 20.53273,-7.61917 6.82157,-1.29103 14.9503,0.31725 22.0061,-0.45711 6.00472,-0.659 14.16041,-3.78553 17.76867,-3.78553 4.80343,0 1.82312,-3.05318 -0.70711,-4.24264 -2.95547,-1.38935 -11.23082,-0.70711 -15.02602,-0.70711 -4.47408,0 -10.7861,-2.87188 -14.14214,-4.24264 -5.79257,-2.36595 -15.34882,-3.37904 -23.33452,-2.12132 -6.10556,0.9616 -15.283866,5.52896 -20.5061,8.48528 -5.384024,3.0479 -14.052107,9.05899 -18.38477,12.02082 -3.172519,2.16875 -7.543492,5.65325 -12.374377,7.77818 -4.963966,2.18347 -12.25241,3.46363 -18.031223,3.53553 -5.437803,0.0677 -12.060131,-1.633 -17.50089,-4.06587 -3.160324,-1.41316 -6.81051,-3.49364 -9.36916,-4.41942 -3.037622,-1.09908 -6.68269,-0.62742 -9.19239,0 z"
           id="path7197"
           sodipodi:nodetypes="csssssssssssssssssssss"
           inkscape:connector-curvature="0" />
        <path
           id="path7195"
           style="fill:#000000;fill-rule:evenodd;stroke:none"
           d="m 126.83435,92.921023 c 2.05485,-2.268657 4.01115,-4.205709 5.66941,-5.863961 2.58298,-2.582967 4.52688,-5.049131 6.38173,-7.406855 1.99338,-2.533801 4.13945,-6.853803 6.86916,-6.815863 3.5998,0.04699 8.33306,6.417094 8.65686,9.656854 0.38968,3.898916 -0.0675,8.374726 -0.70711,12.020816 -0.43804,2.496899 -2.6079,6.113096 -4.41942,8.131726 -2.12641,2.36953 -5.30129,4.25063 -8.66205,5.12652 -2.87815,0.75011 -7.94497,0.44695 -10.07628,-0.17677 -2.97809,-0.87153 -7.10536,-3.74279 -7.95494,-6.36396 -0.75846,-2.34001 2.05485,-5.893079 4.24264,-8.308507 z M 14.40439,138.35265 c -0.9934,-3.40479 0.81848,-5.76823 3.53553,-8.48528 2.49602,-2.49602 5.26891,-2.98801 7.77818,-4.24264 3.75772,-1.87886 8.20242,-1.87383 12.02081,-2.82843 3.49318,-0.87329 8.8981,-2.77384 12.374373,-3.53552 4.368196,-0.95711 8.58879,-3.23799 13.788579,-5.30331 3.966131,-1.57532 7.843478,-3.9544 10.606598,-6.71752 2.08484,-2.08483 10.36629,-11.700394 12.72792,-14.849239 2.52924,-3.372314 14.84748,-14.847478 17.67767,-17.677669 2.31229,-2.312285 18.1773,-15.848498 19.79899,-19.091883 1.3526,-2.705196 4.24264,-4.573184 4.24264,-8.485281 0,-4.24264 0,-8.485281 0,-12.727922 0,-3.273631 -0.98318,-8.055637 -2.12132,-12.020814 -1,-3.483908 -1.95149,-6.391764 -2.82842,-9.899495 -1.09829,-4.3931486 3.05049,-2.8284272 7.07106,-2.8284272 4.78968,0 6.29781,0.3204778 9.8995,2.1213202 2.3387,1.169349 4.82201,6.108499 5.65685,7.778174 1.49885,2.997694 5.26438,16.892728 7.07107,20.506097 1.67799,3.355974 1.99113,6.81068 3.53553,9.899494 0.83792,1.675829 8.10472,0.707107 9.8995,0.707107 4.07222,0 7.45915,0.707107 11.31371,0.707107 4.61728,0 4.91058,-2.776213 7.07106,-5.656854 1.88961,-2.519475 3.32333,-6.646662 4.94975,-9.899495 2.13898,-4.27795 2.50768,-6.34297 4.94975,-9.899495 2.19128,-3.191282 4.82195,-5.583008 6.82107,-7.363961 1.9249,-1.714838 4.32279,-3.70867 8.02817,-3.949747 3.70802,-0.241249 3.53553,4.020613 3.53553,7.778175 0,4.24264 0,8.485281 0,12.727921 0,4.471269 -0.99258,8.49188 -2.12132,11.313708 -1.42471,3.56179 -2.25538,6.46051 -2.82842,10.606602 -0.78249,5.661544 2.67401,5.696855 5.65685,5.656854 4.04636,-0.05091 7.67709,0.409155 11.31371,0 3.432,-0.386134 7.85705,-0.707107 11.31371,-0.707107 4.29286,0 8.21929,0.207107 12.02081,0.707107 5.93786,0.780985 5.24212,4.365014 4.24264,6.363961 -0.53474,1.069489 -4.90336,2.367832 -7.77817,4.24264 -4.26686,2.782631 -5.18094,4.691471 -6.36396,10.606602 -0.20352,1.017594 5.88545,3.930941 9.19239,4.24264 3.67846,0.346717 8.21638,-0.707106 12.02081,-0.707106 4.33321,0 8.78669,-0.2782 12.72792,0.707106 2.75349,0.688373 5.09467,3.118264 6.36396,5.656855 1.50923,3.018461 -6.59021,1.459826 -9.89949,2.12132 -3.74864,0.749319 -6.87232,2.88803 -9.19239,7.778175 -1.92365,4.05459 -0.33547,7.73748 2.12132,9.19239 3.06522,1.81522 9.23088,2.74411 12.72792,4.24264 3.98072,1.70579 7.88294,4.76162 10.6495,7.52817 3.82714,3.82714 5.70805,8.95069 7.02817,12.27082 1.99532,5.01828 3.22763,14.01682 4.24264,19.09188 1.40775,7.03872 1.41422,37.97988 1.41422,44.54773 0,7.54247 0,15.08494 0,22.62741 0,7.54247 0,15.08495 0,22.62742 0,8.54779 -1.41422,36.51667 -1.41422,42.4264 0,5.47025 -5.00624,2.06483 -7.07107,0 -3.3455,-3.3455 -7.36434,-7.2177 -11.3137,-9.19238 -3.02571,-1.51286 -9.80769,-1.41422 -13.43503,-1.41422 -5.86447,0 -6.86022,0.28541 -9.19239,4.94975 -1.95526,3.91052 -4.59449,7.42291 -7.77817,10.6066 -2.80072,2.80072 -5.22982,4.94975 -10.60661,4.94975 -5.42038,0 -10.44142,-1.27873 -15.55634,0 -6.25717,1.56429 -0.53515,-9.62128 0,-12.02082 1.10716,-4.96433 1.41421,-11.10115 1.41421,-14.14213 0,-5.22528 0.32699,-10.44311 -4.24264,-12.72792 -2.77997,-1.38999 -7.22646,7.98536 -9.19239,10.6066 -3.72021,4.96028 -7.64271,10.66169 -11.31371,15.55635 -3.1173,4.1564 -6.46288,7.61985 -10.14949,9.64949 -3.33736,1.83736 -7.83809,3.54382 -12.47792,5.19975 -5.01163,1.78862 -9.40615,3.19437 -14.84925,4.24264 -4.17371,0.8038 -8.8945,0.70711 -13.43502,0.70711 -4.15198,0 -10.3979,-0.95631 -14.14214,-2.82843 -4.28505,-2.14253 -5.06297,-3.15367 -0.70711,-4.24264 4.27556,-1.06889 9.06789,-1.1663 12.72792,-2.12132 4.5682,-1.19199 8.74388,-3.90626 12.02082,-6.36396 4.12934,-3.09701 7.04831,-5.99783 9.94239,-9.8566 2.4153,-3.22041 3.81742,-5.64221 5.61396,-9.23528 1.89028,-3.78056 5.75468,-6.5652 -0.70711,-4.94975 -2.80513,0.70128 -6.09682,1.16421 -8.89949,1.66421 -3.47156,0.61933 -11.64888,4.08426 -7.36396,-1.66421 2.19584,-2.94585 4.37041,-6.70529 6.36396,-9.19239 3.3254,-4.14868 6.72087,-9.5349 9.19239,-12.72792 2.92066,-3.77327 4.42304,-6.90033 7.07106,-11.31371 2.39406,-3.99009 3.66287,-8.03284 5.65686,-12.02082 1.61634,-3.23268 2.12132,-6.66201 2.12132,-10.6066 0,-4.71404 0,-9.42809 0,-14.14213 0,-5.88323 -0.63757,-5.97011 -3.53554,-5.65686 -0.93089,0.10062 -1.53955,3.63946 -3.53553,7.07107 -2.30071,3.95552 -11.00245,17.6686 -14.14214,21.2132 -2.58312,2.91625 -10.3577,9.73731 -14.84924,13.43503 -3.85949,3.17738 -8.43285,6.87237 -14.26345,9.6066 -3.02193,1.41712 -9.92333,3.13801 -13.8566,3.87132 -3.34651,0.62392 -11.13544,2.33715 -16.09189,2.28554 -3.8536,-0.0401 -10.8463,-0.91421 -14.47792,-0.91421 -2.74455,0 -6.67491,0.7071 -9.89949,0.7071 -3.76899,0 -6.87988,-0.87132 -9.8995,-2.12132 -3.42749,-1.41884 -5.16041,-3.64086 -7.77817,-4.94975 -3.3878,-1.69391 -6.76836,-3.73891 -7.77818,-7.77817 -0.98904,-3.95616 2.66189,-5.35517 4.94975,-7.07107 2.7433,-2.05747 4.532512,-2.59575 8.48528,-2.82842 2.12357,-0.125 3.905786,-1.27757 4.678306,-4.36765 0.81124,-3.24497 1.900217,-6.50127 4.16053,-9.06738 2.45746,-2.78993 5.343684,-4.53206 8.131724,-5.65686 1.63145,-0.65819 0.2929,6.31322 1.0429,8.8566 1.02565,3.47816 2.59979,6.08543 5.65685,7.61396 2.93378,1.46689 5.57825,1.20711 8.8566,1.20711 4.95241,0 9.49609,0.24101 14.14214,0 4.10092,-0.21273 8.66833,-1.00573 12.72792,-3.53553 3.15818,-1.96807 6.04343,-5.23968 8.48528,-7.07107 2.06449,-1.54837 6.40368,-2.71201 9.19239,-4.94975 3.28096,-2.63274 7.19383,-7.19383 9.19239,-9.19238 3.58512,-3.58513 5.96384,-8.39217 7.77817,-12.02082 2.21701,-4.43402 2.98491,-8.56367 4.06587,-12.02082 0.9719,-3.10838 -1.03368,-4.33746 -3.00521,-6.54073 -2.44078,-2.72768 -5.76093,-5.28957 -8.48528,-6.8943 -2.28431,-1.34552 -7.44839,-4.08889 -9.63173,-5.03553 -4.0855,-1.77137 -9.20934,-3.85931 -13.88477,-5.52817 -3.29671,-1.17673 -9.07765,-3.50685 -12.19239,-4.28554 -3.28486,-0.82121 -6.09767,-1.41421 -9.8995,-1.41421 -4.72509,0 -6.07901,1.27174 -9.19238,2.82843 -3.36761,1.6838 -3.03584,3.83723 -7.07107,2.82843 -3.70718,-0.9268 -9.178147,-0.46762 -13.08148,0.7071 -2.701362,0.81298 -10.525297,4.53928 -11.313707,7.77817 -2.00569,8.23967 -1.653183,15.31598 1.060657,21.92032 0.72672,1.76854 -16.31129,-2.99023 -20.50609,-13.43503 -1.10066,-2.74058 -4.82483,4.24264 -7.77818,4.24264 -4.6704,0 -6.26233,0.91036 -8.48528,-3.53554 -1.69919,-3.39839 -3.38478,-6.81982 -5.65685,-10.6066 -2.45509,-4.09182 -5.53881,-6.61242 -9.19239,-10.6066 -2.68168,-2.93168 -4.26765,-1.60259 -5.65685,-6.36396 z"
           sodipodi:nodetypes="csssssssssscssssssssssssssssssssssssssssssssssssssssssssssssssssssssssssssssssssssssssssssssssssssssssssssssssssssssssssssssssssssssssssss"
           inkscape:connector-curvature="0" />
        <path
           style="fill:#f00000;fill-opacity:1;fill-rule:evenodd;stroke:none"
           d="M 131.53033,91.707107 C 132.28695,89.09763 134.29454,87.279508 136.5,86 c 2.60595,-1.511854 5.17824,-2.252056 7.46967,-1.823223 2.41381,0.451735 3.97045,2.200709 3.53033,4.323223 -0.57656,2.7805 -1.70712,5.207118 -3.5,7 -1.49709,1.497095 -3.62988,3.252801 -5.67678,3.646447 C 136.14132,99.566055 133.37902,99.724515 132,98 c -1.4127,-1.76663 -1.07995,-4.188117 -0.46967,-6.292893 z"
           id="path7198"
           sodipodi:nodetypes="csssssss"
           inkscape:connector-curvature="0" />
        <path
           id="path7268"
           d="m 139.25928,517.04036 c 5.33448,0 9.92664,3.2328 11.91384,7.83864 10.53432,-8.23896 27.72,-25.85448 32.41152,-55.656 -0.17568,0.007 -0.37152,0.009 -0.54936,0.009 -7.1568,0 -12.96,-5.8032 -12.96,-12.96 0,-7.1568 5.8032,-12.96 12.96,-12.96 7.1568,0 12.96,5.8032 12.96,12.96 0,4.21488 -2.03832,7.98336 -5.15232,10.35 10.10664,8.838 40.13568,31.98744 84.04488,38.32704 l 0.0288,0 c -6.33384,-43.92216 -29.49048,-73.962 -38.33064,-84.07008 -2.36664,3.114 -6.13512,5.15232 -10.35,5.15232 -7.1568,0 -12.96,-5.8032 -12.96,-12.96 0,-7.1568 5.8032,-12.96 12.96,-12.96 7.1568,0 12.96,5.8032 12.96,12.96 0,0.1764 -0.002,0.37368 -0.009,0.54792 29.80152,-4.69008 47.41632,-21.87576 55.65528,-32.41008 -4.60512,-1.98792 -7.83864,-6.57936 -7.83864,-11.91384 0,-7.1568 5.80248,-12.96 12.96,-12.96 l 0.072,0 c 7.15752,0 12.96,5.8032 12.96,12.96 0,5.33448 -3.2328,9.92592 -7.83864,11.91384 8.23896,10.53432 25.85376,27.72 55.65528,32.41008 -0.006,-0.17424 -0.009,-0.37152 -0.009,-0.54792 0,-7.1568 5.80248,-12.96 12.96,-12.96 7.15752,0 12.96,5.8032 12.96,12.96 0,7.1568 -5.80248,12.96 -12.96,12.96 -4.21488,0 -7.98336,-2.03832 -10.35,-5.15232 -8.83944,10.10808 -31.99752,40.14792 -38.33136,84.07008 l 0.0295,0 C 369.0199,498.60872 399.04894,475.46 409.1563,466.622 c -3.11328,-2.36664 -5.15232,-6.13512 -5.15232,-10.35 0,-7.1568 5.80248,-12.96 12.96,-12.96 7.15752,0 12.96,5.8032 12.96,12.96 0,7.1568 -5.80248,12.96 -12.96,12.96 -0.17712,0 -0.3744,-0.002 -0.54864,-0.009 4.69152,29.80152 21.87576,47.41632 32.41152,55.656 1.98576,-4.60512 6.57864,-7.83864 11.91384,-7.83864 7.15608,0 12.96,5.80248 12.96,12.95928 0,7.15752 -5.80392,12.96 -12.96,12.96 -5.3352,0 -9.92808,-3.2328 -11.91384,-7.83864 -10.53576,8.23896 -27.72,25.85448 -32.41152,55.656 0.17424,-0.007 0.37152,-0.009 0.54864,-0.009 7.15752,0 12.96,5.8032 12.96,12.96 0,7.1568 -5.80248,12.96 -12.96,12.96 -7.15752,0 -12.96,-5.8032 -12.96,-12.96 0,-4.21488 2.03904,-7.98336 5.15232,-10.35 -10.10664,-8.838 -40.13568,-31.986 -84.04488,-38.32632 l -0.0295,0 c 6.33384,43.92 29.49192,73.96272 38.33136,84.06936 2.36664,-3.114 6.13512,-5.15232 10.35,-5.15232 7.15752,0 12.96,5.8032 12.96,12.96 0,7.1568 -5.80248,12.96 -12.96,12.96 -7.15752,0 -12.96,-5.8032 -12.96,-12.96 0,-0.17568 0.003,-0.37368 0.009,-0.54936 -29.80152,4.69152 -47.4156,21.8772 -55.65528,32.41152 4.60512,1.9872 7.83864,6.57936 7.83864,11.91384 0,7.1568 -5.80248,12.96 -12.96,12.96 l -0.072,0 c -7.15752,0 -12.96,-5.8032 -12.96,-12.96 0,-5.33448 3.2328,-9.92664 7.83864,-11.91384 -8.23896,-10.53432 -25.85448,-27.72 -55.65528,-32.41152 0.007,0.17568 0.009,0.37368 0.009,0.54936 0,7.1568 -5.8032,12.96 -12.96,12.96 -7.1568,0 -12.96,-5.8032 -12.96,-12.96 0,-7.1568 5.8032,-12.96 12.96,-12.96 4.21488,0 7.98336,2.03832 10.35,5.15232 8.84016,-10.10664 31.9968,-40.14936 38.33064,-84.06936 l -0.0288,0 c -43.90848,6.34104 -73.93752,29.48832 -84.04488,38.32632 3.114,2.36664 5.15232,6.13512 5.15232,10.35 0,7.1568 -5.8032,12.96 -12.96,12.96 -7.1568,0 -12.96,-5.8032 -12.96,-12.96 0,-7.1568 5.8032,-12.96 12.96,-12.96 0.17784,0 0.37368,0.002 0.54936,0.009 -4.69152,-29.80152 -21.8772,-47.41632 -32.41152,-55.656 -1.9872,4.60512 -6.57936,7.83864 -11.91384,7.83864 -7.1568,0 -12.96,-5.80248 -12.96,-12.96 0,-7.1568 5.8032,-12.95928 12.96,-12.95928 z m 30.636,12.94416 c 20.034,18.576 24.66,39.18384 24.66,39.18384 29.27664,-24.67512 74.94984,-30.21984 97.776,-31.40568 l -0.13536,-0.009 c -1.19952,22.86432 -6.768,68.4288 -31.40136,97.65432 0,0 20.628,4.63104 39.2112,24.68952 l 0.0382,-0.0562 c 18.56808,-20.01168 39.15864,-24.63336 39.15864,-24.63336 -24.63336,-29.22552 -30.20184,-74.79 -31.40136,-97.65432 l -0.13536,0.009 c 22.82616,1.18584 68.50008,6.73056 97.77672,31.40568 0,0 4.62384,-20.59848 24.6456,-39.17016 l 0.0662,0.0655 c -20.08008,-18.5868 -24.71184,-39.23064 -24.71184,-39.23064 -29.27664,24.67512 -74.95056,30.21984 -97.77672,31.40568 l 0.13536,0.009 c 1.19952,-22.86288 6.768,-68.4288 31.40136,-97.65432 0,0 -20.59056,-4.6224 -39.15864,-24.63408 l -0.0382,-0.0554 c -18.58392,20.05848 -39.2112,24.68952 -39.2112,24.68952 24.63264,29.22552 30.20184,74.79144 31.40136,97.65432 l 0.13536,-0.009 c -22.82688,-1.18584 -68.49936,-6.73056 -97.776,-31.40568 0,0 -4.62384,20.59848 -24.64632,39.16728 l -0.0137,-0.0158 z"
           style="fill:#fddd00"
           inkscape:connector-curvature="0" />
      </g>
    </g>
  </g>
</svg>
